^C:\USERS\Y400\DOCUMENTS\VISUAL STUDIO 2010\PROJECTS\SHOPFRONT\SHOPFRONT\MAIN.CPP
C:\USERS\Y400\DOCUMENTS\VISUAL STUDIO 2010\PROJECTS\SHOPFRONT\SHOPFRONT\GAME.H
C:\PROGRAM FILES (X86)\MICROSOFT VISUAL STUDIO 10.0\VC\INCLUDE\IOSTREAM
C:\PROGRAM FILES (X86)\MICROSOFT VISUAL STUDIO 10.0\VC\INCLUDE\ISTREAM
C:\PROGRAM FILES (X86)\MICROSOFT VISUAL STUDIO 10.0\VC\INCLUDE\OSTREAM
C:\PROGRAM FILES (X86)\MICROSOFT VISUAL STUDIO 10.0\VC\INCLUDE\IOS
C:\PROGRAM FILES (X86)\MICROSOFT VISUAL STUDIO 10.0\VC\INCLUDE\XLOCNUM
C:\PROGRAM FILES (X86)\MICROSOFT VISUAL STUDIO 10.0\VC\INCLUDE\CLIMITS
C:\PROGRAM FILES (X86)\MICROSOFT VISUAL STUDIO 10.0\VC\INCLUDE\YVALS.H
C:\PROGRAM FILES (X86)\MICROSOFT VISUAL STUDIO 10.0\VC\INCLUDE\CRTDEFS.H
C:\PROGRAM FILES (X86)\MICROSOFT VISUAL STUDIO 10.0\VC\INCLUDE\SAL.H
C:\PROGRAM FILES (X86)\MICROSOFT VISUAL STUDIO 10.0\VC\INCLUDE\CODEANALYSIS\SOURCEANNOTATIONS.H
C:\PROGRAM FILES (X86)\MICROSOFT VISUAL STUDIO 10.0\VC\INCLUDE\VADEFS.H
C:\PROGRAM FILES (X86)\MICROSOFT VISUAL STUDIO 10.0\VC\INCLUDE\USE_ANSI.H
C:\PROGRAM FILES (X86)\MICROSOFT VISUAL STUDIO 10.0\VC\INCLUDE\LIMITS.H
C:\PROGRAM FILES (X86)\MICROSOFT VISUAL STUDIO 10.0\VC\INCLUDE\CMATH
C:\PROGRAM FILES (X86)\MICROSOFT VISUAL STUDIO 10.0\VC\INCLUDE\MATH.H
C:\PROGRAM FILES (X86)\MICROSOFT VISUAL STUDIO 10.0\VC\INCLUDE\CSTDIO
C:\PROGRAM FILES (X86)\MICROSOFT VISUAL STUDIO 10.0\VC\INCLUDE\STDIO.H
C:\PROGRAM FILES (X86)\MICROSOFT VISUAL STUDIO 10.0\VC\INCLUDE\SWPRINTF.INL
C:\PROGRAM FILES (X86)\MICROSOFT VISUAL STUDIO 10.0\VC\INCLUDE\CSTDLIB
C:\PROGRAM FILES (X86)\MICROSOFT VISUAL STUDIO 10.0\VC\INCLUDE\STDLIB.H
C:\PROGRAM FILES (X86)\MICROSOFT VISUAL STUDIO 10.0\VC\INCLUDE\STREAMBUF
C:\PROGRAM FILES (X86)\MICROSOFT VISUAL STUDIO 10.0\VC\INCLUDE\XIOSBASE
C:\PROGRAM FILES (X86)\MICROSOFT VISUAL STUDIO 10.0\VC\INCLUDE\XLOCALE
C:\PROGRAM FILES (X86)\MICROSOFT VISUAL STUDIO 10.0\VC\INCLUDE\CSTRING
C:\PROGRAM FILES (X86)\MICROSOFT VISUAL STUDIO 10.0\VC\INCLUDE\STRING.H
C:\PROGRAM FILES (X86)\MICROSOFT VISUAL STUDIO 10.0\VC\INCLUDE\STDEXCEPT
C:\PROGRAM FILES (X86)\MICROSOFT VISUAL STUDIO 10.0\VC\INCLUDE\EXCEPTION
C:\PROGRAM FILES (X86)\MICROSOFT VISUAL STUDIO 10.0\VC\INCLUDE\XSTDDEF
C:\PROGRAM FILES (X86)\MICROSOFT VISUAL STUDIO 10.0\VC\INCLUDE\CSTDDEF
C:\PROGRAM FILES (X86)\MICROSOFT VISUAL STUDIO 10.0\VC\INCLUDE\STDDEF.H
C:\PROGRAM FILES (X86)\MICROSOFT VISUAL STUDIO 10.0\VC\INCLUDE\EH.H
C:\PROGRAM FILES (X86)\MICROSOFT VISUAL STUDIO 10.0\VC\INCLUDE\MALLOC.H
C:\PROGRAM FILES (X86)\MICROSOFT VISUAL STUDIO 10.0\VC\INCLUDE\XSTRING
C:\PROGRAM FILES (X86)\MICROSOFT VISUAL STUDIO 10.0\VC\INCLUDE\XMEMORY
C:\PROGRAM FILES (X86)\MICROSOFT VISUAL STUDIO 10.0\VC\INCLUDE\NEW
C:\PROGRAM FILES (X86)\MICROSOFT VISUAL STUDIO 10.0\VC\INCLUDE\XUTILITY
C:\PROGRAM FILES (X86)\MICROSOFT VISUAL STUDIO 10.0\VC\INCLUDE\UTILITY
C:\PROGRAM FILES (X86)\MICROSOFT VISUAL STUDIO 10.0\VC\INCLUDE\IOSFWD
C:\PROGRAM FILES (X86)\MICROSOFT VISUAL STUDIO 10.0\VC\INCLUDE\CWCHAR
C:\PROGRAM FILES (X86)\MICROSOFT VISUAL STUDIO 10.0\VC\INCLUDE\WCHAR.H
C:\PROGRAM FILES (X86)\MICROSOFT VISUAL STUDIO 10.0\VC\INCLUDE\WTIME.INL
C:\PROGRAM FILES (X86)\MICROSOFT VISUAL STUDIO 10.0\VC\INCLUDE\CRTDBG.H
C:\PROGRAM FILES (X86)\MICROSOFT VISUAL STUDIO 10.0\VC\INCLUDE\TYPE_TRAITS
C:\PROGRAM FILES (X86)\MICROSOFT VISUAL STUDIO 10.0\VC\INCLUDE\LIMITS
C:\PROGRAM FILES (X86)\MICROSOFT VISUAL STUDIO 10.0\VC\INCLUDE\YMATH.H
C:\PROGRAM FILES (X86)\MICROSOFT VISUAL STUDIO 10.0\VC\INCLUDE\CFLOAT
C:\PROGRAM FILES (X86)\MICROSOFT VISUAL STUDIO 10.0\VC\INCLUDE\FLOAT.H
C:\PROGRAM FILES (X86)\MICROSOFT VISUAL STUDIO 10.0\VC\INCLUDE\CRTWRN.H
C:\PROGRAM FILES (X86)\MICROSOFT VISUAL STUDIO 10.0\VC\INCLUDE\XTR1COMMON
C:\PROGRAM FILES (X86)\MICROSOFT VISUAL STUDIO 10.0\VC\INCLUDE\XFWRAP
C:\PROGRAM FILES (X86)\MICROSOFT VISUAL STUDIO 10.0\VC\INCLUDE\XFWRAP1
C:\PROGRAM FILES (X86)\MICROSOFT VISUAL STUDIO 10.0\VC\INCLUDE\XXTYPE_TRAITS
C:\PROGRAM FILES (X86)\MICROSOFT VISUAL STUDIO 10.0\VC\INCLUDE\TYPEINFO
C:\PROGRAM FILES (X86)\MICROSOFT VISUAL STUDIO 10.0\VC\INCLUDE\XLOCINFO
C:\PROGRAM FILES (X86)\MICROSOFT VISUAL STUDIO 10.0\VC\INCLUDE\XLOCINFO.H
C:\PROGRAM FILES (X86)\MICROSOFT VISUAL STUDIO 10.0\VC\INCLUDE\CTYPE.H
C:\PROGRAM FILES (X86)\MICROSOFT VISUAL STUDIO 10.0\VC\INCLUDE\LOCALE.H
C:\PROGRAM FILES (X86)\MICROSOFT VISUAL STUDIO 10.0\VC\INCLUDE\XDEBUG
C:\PROGRAM FILES (X86)\MICROSOFT VISUAL STUDIO 10.0\VC\INCLUDE\SYSTEM_ERROR
C:\PROGRAM FILES (X86)\MICROSOFT VISUAL STUDIO 10.0\VC\INCLUDE\CERRNO
C:\PROGRAM FILES (X86)\MICROSOFT VISUAL STUDIO 10.0\VC\INCLUDE\ERRNO.H
C:\PROGRAM FILES (X86)\MICROSOFT VISUAL STUDIO 10.0\VC\INCLUDE\SHARE.H
C:\PROGRAM FILES (X86)\MICROSOFT VISUAL STUDIO 10.0\VC\INCLUDE\STRING
C:\PROGRAM FILES (X86)\MICROSOFT VISUAL STUDIO 10.0\VC\INCLUDE\LIST
C:\PROGRAM FILES (X86)\MICROSOFT VISUAL STUDIO 10.0\VC\INCLUDE\XFUNCTIONAL
C:\PROGRAM FILES (X86)\MICROSOFT VISUAL STUDIO 10.0\VC\INCLUDE\MEMORY
C:\PROGRAM FILES (X86)\MICROSOFT VISUAL STUDIO 10.0\VC\INCLUDE\INTRIN.H
C:\PROGRAM FILES (X86)\MICROSOFT VISUAL STUDIO 10.0\VC\INCLUDE\SETJMP.H
C:\PROGRAM FILES (X86)\MICROSOFT VISUAL STUDIO 10.0\VC\INCLUDE\IMMINTRIN.H
C:\PROGRAM FILES (X86)\MICROSOFT VISUAL STUDIO 10.0\VC\INCLUDE\WMMINTRIN.H
C:\PROGRAM FILES (X86)\MICROSOFT VISUAL STUDIO 10.0\VC\INCLUDE\NMMINTRIN.H
C:\PROGRAM FILES (X86)\MICROSOFT VISUAL STUDIO 10.0\VC\INCLUDE\SMMINTRIN.H
C:\PROGRAM FILES (X86)\MICROSOFT VISUAL STUDIO 10.0\VC\INCLUDE\TMMINTRIN.H
C:\PROGRAM FILES (X86)\MICROSOFT VISUAL STUDIO 10.0\VC\INCLUDE\PMMINTRIN.H
C:\PROGRAM FILES (X86)\MICROSOFT VISUAL STUDIO 10.0\VC\INCLUDE\EMMINTRIN.H
C:\PROGRAM FILES (X86)\MICROSOFT VISUAL STUDIO 10.0\VC\INCLUDE\XMMINTRIN.H
C:\PROGRAM FILES (X86)\MICROSOFT VISUAL STUDIO 10.0\VC\INCLUDE\MMINTRIN.H
C:\PROGRAM FILES (X86)\MICROSOFT VISUAL STUDIO 10.0\VC\INCLUDE\AMMINTRIN.H
C:\PROGRAM FILES (X86)\MICROSOFT VISUAL STUDIO 10.0\VC\INCLUDE\MM3DNOW.H
C:\PROGRAM FILES (X86)\MICROSOFT VISUAL STUDIO 10.0\VC\INCLUDE\XXSHARED
C:\USERS\Y400\DOCUMENTS\VISUAL STUDIO 2010\PROJECTS\SHOPFRONT\SHOPFRONT\SHOPPER.H
C:\USERS\Y400\DOCUMENTS\VISUAL STUDIO 2010\PROJECTS\SHOPFRONT\SHOPFRONT\ADMIN.H
C:\PROGRAM FILES (X86)\MICROSOFT VISUAL STUDIO 10.0\VC\INCLUDE\FSTREAM
C:\PROGRAM FILES (X86)\MICROSOFT VISUAL STUDIO 10.0\VC\BIN\1033\CLUI.DLL
C:\WINDOWS\GLOBALIZATION\SORTING\SORTDEFAULT.NLS
C:\WINDOWS\SYSTEM32\TZRES.DLL
C:\USERS\Y400\DOCUMENTS\VISUAL STUDIO 2010\PROJECTS\SHOPFRONT\SHOPFRONT\USER.H
C:\USERS\Y400\DOCUMENTS\VISUAL STUDIO 2010\PROJECTS\SHOPFRONT\SHOPFRONT\RATING.H
^C:\USERS\Y400\DOCUMENTS\VISUAL STUDIO 2010\PROJECTS\SHOPFRONT\SHOPFRONT\GAME.CPP
C:\USERS\Y400\DOCUMENTS\VISUAL STUDIO 2010\PROJECTS\SHOPFRONT\SHOPFRONT\GAME.H
C:\PROGRAM FILES (X86)\MICROSOFT VISUAL STUDIO 10.0\VC\INCLUDE\IOSTREAM
C:\PROGRAM FILES (X86)\MICROSOFT VISUAL STUDIO 10.0\VC\INCLUDE\ISTREAM
C:\PROGRAM FILES (X86)\MICROSOFT VISUAL STUDIO 10.0\VC\INCLUDE\OSTREAM
C:\PROGRAM FILES (X86)\MICROSOFT VISUAL STUDIO 10.0\VC\INCLUDE\IOS
C:\PROGRAM FILES (X86)\MICROSOFT VISUAL STUDIO 10.0\VC\INCLUDE\XLOCNUM
C:\PROGRAM FILES (X86)\MICROSOFT VISUAL STUDIO 10.0\VC\INCLUDE\CLIMITS
C:\PROGRAM FILES (X86)\MICROSOFT VISUAL STUDIO 10.0\VC\INCLUDE\YVALS.H
C:\PROGRAM FILES (X86)\MICROSOFT VISUAL STUDIO 10.0\VC\INCLUDE\CRTDEFS.H
C:\PROGRAM FILES (X86)\MICROSOFT VISUAL STUDIO 10.0\VC\INCLUDE\SAL.H
C:\PROGRAM FILES (X86)\MICROSOFT VISUAL STUDIO 10.0\VC\INCLUDE\CODEANALYSIS\SOURCEANNOTATIONS.H
C:\PROGRAM FILES (X86)\MICROSOFT VISUAL STUDIO 10.0\VC\INCLUDE\VADEFS.H
C:\PROGRAM FILES (X86)\MICROSOFT VISUAL STUDIO 10.0\VC\INCLUDE\USE_ANSI.H
C:\PROGRAM FILES (X86)\MICROSOFT VISUAL STUDIO 10.0\VC\INCLUDE\LIMITS.H
C:\PROGRAM FILES (X86)\MICROSOFT VISUAL STUDIO 10.0\VC\INCLUDE\CMATH
C:\PROGRAM FILES (X86)\MICROSOFT VISUAL STUDIO 10.0\VC\INCLUDE\MATH.H
C:\PROGRAM FILES (X86)\MICROSOFT VISUAL STUDIO 10.0\VC\INCLUDE\CSTDIO
C:\PROGRAM FILES (X86)\MICROSOFT VISUAL STUDIO 10.0\VC\INCLUDE\STDIO.H
C:\PROGRAM FILES (X86)\MICROSOFT VISUAL STUDIO 10.0\VC\INCLUDE\SWPRINTF.INL
C:\PROGRAM FILES (X86)\MICROSOFT VISUAL STUDIO 10.0\VC\INCLUDE\CSTDLIB
C:\PROGRAM FILES (X86)\MICROSOFT VISUAL STUDIO 10.0\VC\INCLUDE\STDLIB.H
C:\PROGRAM FILES (X86)\MICROSOFT VISUAL STUDIO 10.0\VC\INCLUDE\STREAMBUF
C:\PROGRAM FILES (X86)\MICROSOFT VISUAL STUDIO 10.0\VC\INCLUDE\XIOSBASE
C:\PROGRAM FILES (X86)\MICROSOFT VISUAL STUDIO 10.0\VC\INCLUDE\XLOCALE
C:\PROGRAM FILES (X86)\MICROSOFT VISUAL STUDIO 10.0\VC\INCLUDE\CSTRING
C:\PROGRAM FILES (X86)\MICROSOFT VISUAL STUDIO 10.0\VC\INCLUDE\STRING.H
C:\PROGRAM FILES (X86)\MICROSOFT VISUAL STUDIO 10.0\VC\INCLUDE\STDEXCEPT
C:\PROGRAM FILES (X86)\MICROSOFT VISUAL STUDIO 10.0\VC\INCLUDE\EXCEPTION
C:\PROGRAM FILES (X86)\MICROSOFT VISUAL STUDIO 10.0\VC\INCLUDE\XSTDDEF
C:\PROGRAM FILES (X86)\MICROSOFT VISUAL STUDIO 10.0\VC\INCLUDE\CSTDDEF
C:\PROGRAM FILES (X86)\MICROSOFT VISUAL STUDIO 10.0\VC\INCLUDE\STDDEF.H
C:\PROGRAM FILES (X86)\MICROSOFT VISUAL STUDIO 10.0\VC\INCLUDE\EH.H
C:\PROGRAM FILES (X86)\MICROSOFT VISUAL STUDIO 10.0\VC\INCLUDE\MALLOC.H
C:\PROGRAM FILES (X86)\MICROSOFT VISUAL STUDIO 10.0\VC\INCLUDE\XSTRING
C:\PROGRAM FILES (X86)\MICROSOFT VISUAL STUDIO 10.0\VC\INCLUDE\XMEMORY
C:\PROGRAM FILES (X86)\MICROSOFT VISUAL STUDIO 10.0\VC\INCLUDE\NEW
C:\PROGRAM FILES (X86)\MICROSOFT VISUAL STUDIO 10.0\VC\INCLUDE\XUTILITY
C:\PROGRAM FILES (X86)\MICROSOFT VISUAL STUDIO 10.0\VC\INCLUDE\UTILITY
C:\PROGRAM FILES (X86)\MICROSOFT VISUAL STUDIO 10.0\VC\INCLUDE\IOSFWD
C:\PROGRAM FILES (X86)\MICROSOFT VISUAL STUDIO 10.0\VC\INCLUDE\CWCHAR
C:\PROGRAM FILES (X86)\MICROSOFT VISUAL STUDIO 10.0\VC\INCLUDE\WCHAR.H
C:\PROGRAM FILES (X86)\MICROSOFT VISUAL STUDIO 10.0\VC\INCLUDE\WTIME.INL
C:\PROGRAM FILES (X86)\MICROSOFT VISUAL STUDIO 10.0\VC\INCLUDE\CRTDBG.H
C:\PROGRAM FILES (X86)\MICROSOFT VISUAL STUDIO 10.0\VC\INCLUDE\TYPE_TRAITS
C:\PROGRAM FILES (X86)\MICROSOFT VISUAL STUDIO 10.0\VC\INCLUDE\LIMITS
C:\PROGRAM FILES (X86)\MICROSOFT VISUAL STUDIO 10.0\VC\INCLUDE\YMATH.H
C:\PROGRAM FILES (X86)\MICROSOFT VISUAL STUDIO 10.0\VC\INCLUDE\CFLOAT
C:\PROGRAM FILES (X86)\MICROSOFT VISUAL STUDIO 10.0\VC\INCLUDE\FLOAT.H
C:\PROGRAM FILES (X86)\MICROSOFT VISUAL STUDIO 10.0\VC\INCLUDE\CRTWRN.H
C:\PROGRAM FILES (X86)\MICROSOFT VISUAL STUDIO 10.0\VC\INCLUDE\XTR1COMMON
C:\PROGRAM FILES (X86)\MICROSOFT VISUAL STUDIO 10.0\VC\INCLUDE\XFWRAP
C:\PROGRAM FILES (X86)\MICROSOFT VISUAL STUDIO 10.0\VC\INCLUDE\XFWRAP1
C:\PROGRAM FILES (X86)\MICROSOFT VISUAL STUDIO 10.0\VC\INCLUDE\XXTYPE_TRAITS
C:\PROGRAM FILES (X86)\MICROSOFT VISUAL STUDIO 10.0\VC\INCLUDE\TYPEINFO
C:\PROGRAM FILES (X86)\MICROSOFT VISUAL STUDIO 10.0\VC\INCLUDE\XLOCINFO
C:\PROGRAM FILES (X86)\MICROSOFT VISUAL STUDIO 10.0\VC\INCLUDE\XLOCINFO.H
C:\PROGRAM FILES (X86)\MICROSOFT VISUAL STUDIO 10.0\VC\INCLUDE\CTYPE.H
C:\PROGRAM FILES (X86)\MICROSOFT VISUAL STUDIO 10.0\VC\INCLUDE\LOCALE.H
C:\PROGRAM FILES (X86)\MICROSOFT VISUAL STUDIO 10.0\VC\INCLUDE\XDEBUG
C:\PROGRAM FILES (X86)\MICROSOFT VISUAL STUDIO 10.0\VC\INCLUDE\SYSTEM_ERROR
C:\PROGRAM FILES (X86)\MICROSOFT VISUAL STUDIO 10.0\VC\INCLUDE\CERRNO
C:\PROGRAM FILES (X86)\MICROSOFT VISUAL STUDIO 10.0\VC\INCLUDE\ERRNO.H
C:\PROGRAM FILES (X86)\MICROSOFT VISUAL STUDIO 10.0\VC\INCLUDE\SHARE.H
C:\PROGRAM FILES (X86)\MICROSOFT VISUAL STUDIO 10.0\VC\INCLUDE\STRING
C:\PROGRAM FILES (X86)\MICROSOFT VISUAL STUDIO 10.0\VC\INCLUDE\LIST
C:\PROGRAM FILES (X86)\MICROSOFT VISUAL STUDIO 10.0\VC\INCLUDE\XFUNCTIONAL
C:\PROGRAM FILES (X86)\MICROSOFT VISUAL STUDIO 10.0\VC\INCLUDE\MEMORY
C:\PROGRAM FILES (X86)\MICROSOFT VISUAL STUDIO 10.0\VC\INCLUDE\INTRIN.H
C:\PROGRAM FILES (X86)\MICROSOFT VISUAL STUDIO 10.0\VC\INCLUDE\SETJMP.H
C:\PROGRAM FILES (X86)\MICROSOFT VISUAL STUDIO 10.0\VC\INCLUDE\IMMINTRIN.H
C:\PROGRAM FILES (X86)\MICROSOFT VISUAL STUDIO 10.0\VC\INCLUDE\WMMINTRIN.H
C:\PROGRAM FILES (X86)\MICROSOFT VISUAL STUDIO 10.0\VC\INCLUDE\NMMINTRIN.H
C:\PROGRAM FILES (X86)\MICROSOFT VISUAL STUDIO 10.0\VC\INCLUDE\SMMINTRIN.H
C:\PROGRAM FILES (X86)\MICROSOFT VISUAL STUDIO 10.0\VC\INCLUDE\TMMINTRIN.H
C:\PROGRAM FILES (X86)\MICROSOFT VISUAL STUDIO 10.0\VC\INCLUDE\PMMINTRIN.H
C:\PROGRAM FILES (X86)\MICROSOFT VISUAL STUDIO 10.0\VC\INCLUDE\EMMINTRIN.H
C:\PROGRAM FILES (X86)\MICROSOFT VISUAL STUDIO 10.0\VC\INCLUDE\XMMINTRIN.H
C:\PROGRAM FILES (X86)\MICROSOFT VISUAL STUDIO 10.0\VC\INCLUDE\MMINTRIN.H
C:\PROGRAM FILES (X86)\MICROSOFT VISUAL STUDIO 10.0\VC\INCLUDE\AMMINTRIN.H
C:\PROGRAM FILES (X86)\MICROSOFT VISUAL STUDIO 10.0\VC\INCLUDE\MM3DNOW.H
C:\PROGRAM FILES (X86)\MICROSOFT VISUAL STUDIO 10.0\VC\INCLUDE\XXSHARED
C:\PROGRAM FILES (X86)\MICROSOFT VISUAL STUDIO 10.0\VC\BIN\1033\CLUI.DLL
C:\WINDOWS\GLOBALIZATION\SORTING\SORTDEFAULT.NLS
C:\WINDOWS\SYSTEM32\TZRES.DLL
^C:\USERS\Y400\DOCUMENTS\VISUAL STUDIO 2010\PROJECTS\SHOPFRONT\SHOPFRONT\USER.CPP
C:\USERS\Y400\DOCUMENTS\VISUAL STUDIO 2010\PROJECTS\SHOPFRONT\SHOPFRONT\USER.H
C:\PROGRAM FILES (X86)\MICROSOFT VISUAL STUDIO 10.0\VC\INCLUDE\IOSTREAM
C:\PROGRAM FILES (X86)\MICROSOFT VISUAL STUDIO 10.0\VC\INCLUDE\ISTREAM
C:\PROGRAM FILES (X86)\MICROSOFT VISUAL STUDIO 10.0\VC\INCLUDE\OSTREAM
C:\PROGRAM FILES (X86)\MICROSOFT VISUAL STUDIO 10.0\VC\INCLUDE\IOS
C:\PROGRAM FILES (X86)\MICROSOFT VISUAL STUDIO 10.0\VC\INCLUDE\XLOCNUM
C:\PROGRAM FILES (X86)\MICROSOFT VISUAL STUDIO 10.0\VC\INCLUDE\CLIMITS
C:\PROGRAM FILES (X86)\MICROSOFT VISUAL STUDIO 10.0\VC\INCLUDE\YVALS.H
C:\PROGRAM FILES (X86)\MICROSOFT VISUAL STUDIO 10.0\VC\INCLUDE\CRTDEFS.H
C:\PROGRAM FILES (X86)\MICROSOFT VISUAL STUDIO 10.0\VC\INCLUDE\SAL.H
C:\PROGRAM FILES (X86)\MICROSOFT VISUAL STUDIO 10.0\VC\INCLUDE\CODEANALYSIS\SOURCEANNOTATIONS.H
C:\PROGRAM FILES (X86)\MICROSOFT VISUAL STUDIO 10.0\VC\INCLUDE\VADEFS.H
C:\PROGRAM FILES (X86)\MICROSOFT VISUAL STUDIO 10.0\VC\INCLUDE\USE_ANSI.H
C:\PROGRAM FILES (X86)\MICROSOFT VISUAL STUDIO 10.0\VC\INCLUDE\LIMITS.H
C:\PROGRAM FILES (X86)\MICROSOFT VISUAL STUDIO 10.0\VC\INCLUDE\CMATH
C:\PROGRAM FILES (X86)\MICROSOFT VISUAL STUDIO 10.0\VC\INCLUDE\MATH.H
C:\PROGRAM FILES (X86)\MICROSOFT VISUAL STUDIO 10.0\VC\INCLUDE\CSTDIO
C:\PROGRAM FILES (X86)\MICROSOFT VISUAL STUDIO 10.0\VC\INCLUDE\STDIO.H
C:\PROGRAM FILES (X86)\MICROSOFT VISUAL STUDIO 10.0\VC\INCLUDE\SWPRINTF.INL
C:\PROGRAM FILES (X86)\MICROSOFT VISUAL STUDIO 10.0\VC\INCLUDE\CSTDLIB
C:\PROGRAM FILES (X86)\MICROSOFT VISUAL STUDIO 10.0\VC\INCLUDE\STDLIB.H
C:\PROGRAM FILES (X86)\MICROSOFT VISUAL STUDIO 10.0\VC\INCLUDE\STREAMBUF
C:\PROGRAM FILES (X86)\MICROSOFT VISUAL STUDIO 10.0\VC\INCLUDE\XIOSBASE
C:\PROGRAM FILES (X86)\MICROSOFT VISUAL STUDIO 10.0\VC\INCLUDE\XLOCALE
C:\PROGRAM FILES (X86)\MICROSOFT VISUAL STUDIO 10.0\VC\INCLUDE\CSTRING
C:\PROGRAM FILES (X86)\MICROSOFT VISUAL STUDIO 10.0\VC\INCLUDE\STRING.H
C:\PROGRAM FILES (X86)\MICROSOFT VISUAL STUDIO 10.0\VC\INCLUDE\STDEXCEPT
C:\PROGRAM FILES (X86)\MICROSOFT VISUAL STUDIO 10.0\VC\INCLUDE\EXCEPTION
C:\PROGRAM FILES (X86)\MICROSOFT VISUAL STUDIO 10.0\VC\INCLUDE\XSTDDEF
C:\PROGRAM FILES (X86)\MICROSOFT VISUAL STUDIO 10.0\VC\INCLUDE\CSTDDEF
C:\PROGRAM FILES (X86)\MICROSOFT VISUAL STUDIO 10.0\VC\INCLUDE\STDDEF.H
C:\PROGRAM FILES (X86)\MICROSOFT VISUAL STUDIO 10.0\VC\INCLUDE\EH.H
C:\PROGRAM FILES (X86)\MICROSOFT VISUAL STUDIO 10.0\VC\INCLUDE\MALLOC.H
C:\PROGRAM FILES (X86)\MICROSOFT VISUAL STUDIO 10.0\VC\INCLUDE\XSTRING
C:\PROGRAM FILES (X86)\MICROSOFT VISUAL STUDIO 10.0\VC\INCLUDE\XMEMORY
C:\PROGRAM FILES (X86)\MICROSOFT VISUAL STUDIO 10.0\VC\INCLUDE\NEW
C:\PROGRAM FILES (X86)\MICROSOFT VISUAL STUDIO 10.0\VC\INCLUDE\XUTILITY
C:\PROGRAM FILES (X86)\MICROSOFT VISUAL STUDIO 10.0\VC\INCLUDE\UTILITY
C:\PROGRAM FILES (X86)\MICROSOFT VISUAL STUDIO 10.0\VC\INCLUDE\IOSFWD
C:\PROGRAM FILES (X86)\MICROSOFT VISUAL STUDIO 10.0\VC\INCLUDE\CWCHAR
C:\PROGRAM FILES (X86)\MICROSOFT VISUAL STUDIO 10.0\VC\INCLUDE\WCHAR.H
C:\PROGRAM FILES (X86)\MICROSOFT VISUAL STUDIO 10.0\VC\INCLUDE\WTIME.INL
C:\PROGRAM FILES (X86)\MICROSOFT VISUAL STUDIO 10.0\VC\INCLUDE\CRTDBG.H
C:\PROGRAM FILES (X86)\MICROSOFT VISUAL STUDIO 10.0\VC\INCLUDE\TYPE_TRAITS
C:\PROGRAM FILES (X86)\MICROSOFT VISUAL STUDIO 10.0\VC\INCLUDE\LIMITS
C:\PROGRAM FILES (X86)\MICROSOFT VISUAL STUDIO 10.0\VC\INCLUDE\YMATH.H
C:\PROGRAM FILES (X86)\MICROSOFT VISUAL STUDIO 10.0\VC\INCLUDE\CFLOAT
C:\PROGRAM FILES (X86)\MICROSOFT VISUAL STUDIO 10.0\VC\INCLUDE\FLOAT.H
C:\PROGRAM FILES (X86)\MICROSOFT VISUAL STUDIO 10.0\VC\INCLUDE\CRTWRN.H
C:\PROGRAM FILES (X86)\MICROSOFT VISUAL STUDIO 10.0\VC\INCLUDE\XTR1COMMON
C:\PROGRAM FILES (X86)\MICROSOFT VISUAL STUDIO 10.0\VC\INCLUDE\XFWRAP
C:\PROGRAM FILES (X86)\MICROSOFT VISUAL STUDIO 10.0\VC\INCLUDE\XFWRAP1
C:\PROGRAM FILES (X86)\MICROSOFT VISUAL STUDIO 10.0\VC\INCLUDE\XXTYPE_TRAITS
C:\PROGRAM FILES (X86)\MICROSOFT VISUAL STUDIO 10.0\VC\INCLUDE\TYPEINFO
C:\PROGRAM FILES (X86)\MICROSOFT VISUAL STUDIO 10.0\VC\INCLUDE\XLOCINFO
C:\PROGRAM FILES (X86)\MICROSOFT VISUAL STUDIO 10.0\VC\INCLUDE\XLOCINFO.H
C:\PROGRAM FILES (X86)\MICROSOFT VISUAL STUDIO 10.0\VC\INCLUDE\CTYPE.H
C:\PROGRAM FILES (X86)\MICROSOFT VISUAL STUDIO 10.0\VC\INCLUDE\LOCALE.H
C:\PROGRAM FILES (X86)\MICROSOFT VISUAL STUDIO 10.0\VC\INCLUDE\XDEBUG
C:\PROGRAM FILES (X86)\MICROSOFT VISUAL STUDIO 10.0\VC\INCLUDE\SYSTEM_ERROR
C:\PROGRAM FILES (X86)\MICROSOFT VISUAL STUDIO 10.0\VC\INCLUDE\CERRNO
C:\PROGRAM FILES (X86)\MICROSOFT VISUAL STUDIO 10.0\VC\INCLUDE\ERRNO.H
C:\PROGRAM FILES (X86)\MICROSOFT VISUAL STUDIO 10.0\VC\INCLUDE\SHARE.H
C:\PROGRAM FILES (X86)\MICROSOFT VISUAL STUDIO 10.0\VC\INCLUDE\LIST
C:\PROGRAM FILES (X86)\MICROSOFT VISUAL STUDIO 10.0\VC\INCLUDE\XFUNCTIONAL
C:\PROGRAM FILES (X86)\MICROSOFT VISUAL STUDIO 10.0\VC\INCLUDE\MEMORY
C:\PROGRAM FILES (X86)\MICROSOFT VISUAL STUDIO 10.0\VC\INCLUDE\INTRIN.H
C:\PROGRAM FILES (X86)\MICROSOFT VISUAL STUDIO 10.0\VC\INCLUDE\SETJMP.H
C:\PROGRAM FILES (X86)\MICROSOFT VISUAL STUDIO 10.0\VC\INCLUDE\IMMINTRIN.H
C:\PROGRAM FILES (X86)\MICROSOFT VISUAL STUDIO 10.0\VC\INCLUDE\WMMINTRIN.H
C:\PROGRAM FILES (X86)\MICROSOFT VISUAL STUDIO 10.0\VC\INCLUDE\NMMINTRIN.H
C:\PROGRAM FILES (X86)\MICROSOFT VISUAL STUDIO 10.0\VC\INCLUDE\SMMINTRIN.H
C:\PROGRAM FILES (X86)\MICROSOFT VISUAL STUDIO 10.0\VC\INCLUDE\TMMINTRIN.H
C:\PROGRAM FILES (X86)\MICROSOFT VISUAL STUDIO 10.0\VC\INCLUDE\PMMINTRIN.H
C:\PROGRAM FILES (X86)\MICROSOFT VISUAL STUDIO 10.0\VC\INCLUDE\EMMINTRIN.H
C:\PROGRAM FILES (X86)\MICROSOFT VISUAL STUDIO 10.0\VC\INCLUDE\XMMINTRIN.H
C:\PROGRAM FILES (X86)\MICROSOFT VISUAL STUDIO 10.0\VC\INCLUDE\MMINTRIN.H
C:\PROGRAM FILES (X86)\MICROSOFT VISUAL STUDIO 10.0\VC\INCLUDE\AMMINTRIN.H
C:\PROGRAM FILES (X86)\MICROSOFT VISUAL STUDIO 10.0\VC\INCLUDE\MM3DNOW.H
C:\PROGRAM FILES (X86)\MICROSOFT VISUAL STUDIO 10.0\VC\INCLUDE\XXSHARED
C:\PROGRAM FILES (X86)\MICROSOFT VISUAL STUDIO 10.0\VC\INCLUDE\FSTREAM
C:\USERS\Y400\DOCUMENTS\VISUAL STUDIO 2010\PROJECTS\SHOPFRONT\SHOPFRONT\GAME.H
C:\PROGRAM FILES (X86)\MICROSOFT VISUAL STUDIO 10.0\VC\INCLUDE\STRING
C:\USERS\Y400\DOCUMENTS\VISUAL STUDIO 2010\PROJECTS\SHOPFRONT\SHOPFRONT\RATING.H
C:\PROGRAM FILES (X86)\MICROSOFT VISUAL STUDIO 10.0\VC\BIN\1033\CLUI.DLL
C:\WINDOWS\GLOBALIZATION\SORTING\SORTDEFAULT.NLS
C:\WINDOWS\SYSTEM32\TZRES.DLL
^C:\USERS\Y400\DOCUMENTS\VISUAL STUDIO 2010\PROJECTS\SHOPFRONT\SHOPFRONT\RATING.CPP
C:\USERS\Y400\DOCUMENTS\VISUAL STUDIO 2010\PROJECTS\SHOPFRONT\SHOPFRONT\RATING.H
C:\USERS\Y400\DOCUMENTS\VISUAL STUDIO 2010\PROJECTS\SHOPFRONT\SHOPFRONT\USER.H
C:\PROGRAM FILES (X86)\MICROSOFT VISUAL STUDIO 10.0\VC\INCLUDE\IOSTREAM
C:\PROGRAM FILES (X86)\MICROSOFT VISUAL STUDIO 10.0\VC\INCLUDE\ISTREAM
C:\PROGRAM FILES (X86)\MICROSOFT VISUAL STUDIO 10.0\VC\INCLUDE\OSTREAM
C:\PROGRAM FILES (X86)\MICROSOFT VISUAL STUDIO 10.0\VC\INCLUDE\IOS
C:\PROGRAM FILES (X86)\MICROSOFT VISUAL STUDIO 10.0\VC\INCLUDE\XLOCNUM
C:\PROGRAM FILES (X86)\MICROSOFT VISUAL STUDIO 10.0\VC\INCLUDE\CLIMITS
C:\PROGRAM FILES (X86)\MICROSOFT VISUAL STUDIO 10.0\VC\INCLUDE\YVALS.H
C:\PROGRAM FILES (X86)\MICROSOFT VISUAL STUDIO 10.0\VC\INCLUDE\CRTDEFS.H
C:\PROGRAM FILES (X86)\MICROSOFT VISUAL STUDIO 10.0\VC\INCLUDE\SAL.H
C:\PROGRAM FILES (X86)\MICROSOFT VISUAL STUDIO 10.0\VC\INCLUDE\CODEANALYSIS\SOURCEANNOTATIONS.H
C:\PROGRAM FILES (X86)\MICROSOFT VISUAL STUDIO 10.0\VC\INCLUDE\VADEFS.H
C:\PROGRAM FILES (X86)\MICROSOFT VISUAL STUDIO 10.0\VC\INCLUDE\USE_ANSI.H
C:\PROGRAM FILES (X86)\MICROSOFT VISUAL STUDIO 10.0\VC\INCLUDE\LIMITS.H
C:\PROGRAM FILES (X86)\MICROSOFT VISUAL STUDIO 10.0\VC\INCLUDE\CMATH
C:\PROGRAM FILES (X86)\MICROSOFT VISUAL STUDIO 10.0\VC\INCLUDE\MATH.H
C:\PROGRAM FILES (X86)\MICROSOFT VISUAL STUDIO 10.0\VC\INCLUDE\CSTDIO
C:\PROGRAM FILES (X86)\MICROSOFT VISUAL STUDIO 10.0\VC\INCLUDE\STDIO.H
C:\PROGRAM FILES (X86)\MICROSOFT VISUAL STUDIO 10.0\VC\INCLUDE\SWPRINTF.INL
C:\PROGRAM FILES (X86)\MICROSOFT VISUAL STUDIO 10.0\VC\INCLUDE\CSTDLIB
C:\PROGRAM FILES (X86)\MICROSOFT VISUAL STUDIO 10.0\VC\INCLUDE\STDLIB.H
C:\PROGRAM FILES (X86)\MICROSOFT VISUAL STUDIO 10.0\VC\INCLUDE\STREAMBUF
C:\PROGRAM FILES (X86)\MICROSOFT VISUAL STUDIO 10.0\VC\INCLUDE\XIOSBASE
C:\PROGRAM FILES (X86)\MICROSOFT VISUAL STUDIO 10.0\VC\INCLUDE\XLOCALE
C:\PROGRAM FILES (X86)\MICROSOFT VISUAL STUDIO 10.0\VC\INCLUDE\CSTRING
C:\PROGRAM FILES (X86)\MICROSOFT VISUAL STUDIO 10.0\VC\INCLUDE\STRING.H
C:\PROGRAM FILES (X86)\MICROSOFT VISUAL STUDIO 10.0\VC\INCLUDE\STDEXCEPT
C:\PROGRAM FILES (X86)\MICROSOFT VISUAL STUDIO 10.0\VC\INCLUDE\EXCEPTION
C:\PROGRAM FILES (X86)\MICROSOFT VISUAL STUDIO 10.0\VC\INCLUDE\XSTDDEF
C:\PROGRAM FILES (X86)\MICROSOFT VISUAL STUDIO 10.0\VC\INCLUDE\CSTDDEF
C:\PROGRAM FILES (X86)\MICROSOFT VISUAL STUDIO 10.0\VC\INCLUDE\STDDEF.H
C:\PROGRAM FILES (X86)\MICROSOFT VISUAL STUDIO 10.0\VC\INCLUDE\EH.H
C:\PROGRAM FILES (X86)\MICROSOFT VISUAL STUDIO 10.0\VC\INCLUDE\MALLOC.H
C:\PROGRAM FILES (X86)\MICROSOFT VISUAL STUDIO 10.0\VC\INCLUDE\XSTRING
C:\PROGRAM FILES (X86)\MICROSOFT VISUAL STUDIO 10.0\VC\INCLUDE\XMEMORY
C:\PROGRAM FILES (X86)\MICROSOFT VISUAL STUDIO 10.0\VC\INCLUDE\NEW
C:\PROGRAM FILES (X86)\MICROSOFT VISUAL STUDIO 10.0\VC\INCLUDE\XUTILITY
C:\PROGRAM FILES (X86)\MICROSOFT VISUAL STUDIO 10.0\VC\INCLUDE\UTILITY
C:\PROGRAM FILES (X86)\MICROSOFT VISUAL STUDIO 10.0\VC\INCLUDE\IOSFWD
C:\PROGRAM FILES (X86)\MICROSOFT VISUAL STUDIO 10.0\VC\INCLUDE\CWCHAR
C:\PROGRAM FILES (X86)\MICROSOFT VISUAL STUDIO 10.0\VC\INCLUDE\WCHAR.H
C:\PROGRAM FILES (X86)\MICROSOFT VISUAL STUDIO 10.0\VC\INCLUDE\WTIME.INL
C:\PROGRAM FILES (X86)\MICROSOFT VISUAL STUDIO 10.0\VC\INCLUDE\CRTDBG.H
C:\PROGRAM FILES (X86)\MICROSOFT VISUAL STUDIO 10.0\VC\INCLUDE\TYPE_TRAITS
C:\PROGRAM FILES (X86)\MICROSOFT VISUAL STUDIO 10.0\VC\INCLUDE\LIMITS
C:\PROGRAM FILES (X86)\MICROSOFT VISUAL STUDIO 10.0\VC\INCLUDE\YMATH.H
C:\PROGRAM FILES (X86)\MICROSOFT VISUAL STUDIO 10.0\VC\INCLUDE\CFLOAT
C:\PROGRAM FILES (X86)\MICROSOFT VISUAL STUDIO 10.0\VC\INCLUDE\FLOAT.H
C:\PROGRAM FILES (X86)\MICROSOFT VISUAL STUDIO 10.0\VC\INCLUDE\CRTWRN.H
C:\PROGRAM FILES (X86)\MICROSOFT VISUAL STUDIO 10.0\VC\INCLUDE\XTR1COMMON
C:\PROGRAM FILES (X86)\MICROSOFT VISUAL STUDIO 10.0\VC\INCLUDE\XFWRAP
C:\PROGRAM FILES (X86)\MICROSOFT VISUAL STUDIO 10.0\VC\INCLUDE\XFWRAP1
C:\PROGRAM FILES (X86)\MICROSOFT VISUAL STUDIO 10.0\VC\INCLUDE\XXTYPE_TRAITS
C:\PROGRAM FILES (X86)\MICROSOFT VISUAL STUDIO 10.0\VC\INCLUDE\TYPEINFO
C:\PROGRAM FILES (X86)\MICROSOFT VISUAL STUDIO 10.0\VC\INCLUDE\XLOCINFO
C:\PROGRAM FILES (X86)\MICROSOFT VISUAL STUDIO 10.0\VC\INCLUDE\XLOCINFO.H
C:\PROGRAM FILES (X86)\MICROSOFT VISUAL STUDIO 10.0\VC\INCLUDE\CTYPE.H
C:\PROGRAM FILES (X86)\MICROSOFT VISUAL STUDIO 10.0\VC\INCLUDE\LOCALE.H
C:\PROGRAM FILES (X86)\MICROSOFT VISUAL STUDIO 10.0\VC\INCLUDE\XDEBUG
C:\PROGRAM FILES (X86)\MICROSOFT VISUAL STUDIO 10.0\VC\INCLUDE\SYSTEM_ERROR
C:\PROGRAM FILES (X86)\MICROSOFT VISUAL STUDIO 10.0\VC\INCLUDE\CERRNO
C:\PROGRAM FILES (X86)\MICROSOFT VISUAL STUDIO 10.0\VC\INCLUDE\ERRNO.H
C:\PROGRAM FILES (X86)\MICROSOFT VISUAL STUDIO 10.0\VC\INCLUDE\SHARE.H
C:\PROGRAM FILES (X86)\MICROSOFT VISUAL STUDIO 10.0\VC\INCLUDE\LIST
C:\PROGRAM FILES (X86)\MICROSOFT VISUAL STUDIO 10.0\VC\INCLUDE\XFUNCTIONAL
C:\PROGRAM FILES (X86)\MICROSOFT VISUAL STUDIO 10.0\VC\INCLUDE\MEMORY
C:\PROGRAM FILES (X86)\MICROSOFT VISUAL STUDIO 10.0\VC\INCLUDE\INTRIN.H
C:\PROGRAM FILES (X86)\MICROSOFT VISUAL STUDIO 10.0\VC\INCLUDE\SETJMP.H
C:\PROGRAM FILES (X86)\MICROSOFT VISUAL STUDIO 10.0\VC\INCLUDE\IMMINTRIN.H
C:\PROGRAM FILES (X86)\MICROSOFT VISUAL STUDIO 10.0\VC\INCLUDE\WMMINTRIN.H
C:\PROGRAM FILES (X86)\MICROSOFT VISUAL STUDIO 10.0\VC\INCLUDE\NMMINTRIN.H
C:\PROGRAM FILES (X86)\MICROSOFT VISUAL STUDIO 10.0\VC\INCLUDE\SMMINTRIN.H
C:\PROGRAM FILES (X86)\MICROSOFT VISUAL STUDIO 10.0\VC\INCLUDE\TMMINTRIN.H
C:\PROGRAM FILES (X86)\MICROSOFT VISUAL STUDIO 10.0\VC\INCLUDE\PMMINTRIN.H
C:\PROGRAM FILES (X86)\MICROSOFT VISUAL STUDIO 10.0\VC\INCLUDE\EMMINTRIN.H
C:\PROGRAM FILES (X86)\MICROSOFT VISUAL STUDIO 10.0\VC\INCLUDE\XMMINTRIN.H
C:\PROGRAM FILES (X86)\MICROSOFT VISUAL STUDIO 10.0\VC\INCLUDE\MMINTRIN.H
C:\PROGRAM FILES (X86)\MICROSOFT VISUAL STUDIO 10.0\VC\INCLUDE\AMMINTRIN.H
C:\PROGRAM FILES (X86)\MICROSOFT VISUAL STUDIO 10.0\VC\INCLUDE\MM3DNOW.H
C:\PROGRAM FILES (X86)\MICROSOFT VISUAL STUDIO 10.0\VC\INCLUDE\XXSHARED
C:\PROGRAM FILES (X86)\MICROSOFT VISUAL STUDIO 10.0\VC\INCLUDE\FSTREAM
C:\USERS\Y400\DOCUMENTS\VISUAL STUDIO 2010\PROJECTS\SHOPFRONT\SHOPFRONT\GAME.H
C:\PROGRAM FILES (X86)\MICROSOFT VISUAL STUDIO 10.0\VC\INCLUDE\STRING
C:\PROGRAM FILES (X86)\MICROSOFT VISUAL STUDIO 10.0\VC\BIN\1033\CLUI.DLL
C:\WINDOWS\GLOBALIZATION\SORTING\SORTDEFAULT.NLS
C:\WINDOWS\SYSTEM32\TZRES.DLL
^C:\USERS\Y400\DOCUMENTS\VISUAL STUDIO 2010\PROJECTS\SHOPFRONT\SHOPFRONT\SHOPPER.CPP
C:\USERS\Y400\DOCUMENTS\VISUAL STUDIO 2010\PROJECTS\SHOPFRONT\SHOPFRONT\SHOPPER.H
C:\USERS\Y400\DOCUMENTS\VISUAL STUDIO 2010\PROJECTS\SHOPFRONT\SHOPFRONT\GAME.H
C:\PROGRAM FILES (X86)\MICROSOFT VISUAL STUDIO 10.0\VC\INCLUDE\IOSTREAM
C:\PROGRAM FILES (X86)\MICROSOFT VISUAL STUDIO 10.0\VC\INCLUDE\ISTREAM
C:\PROGRAM FILES (X86)\MICROSOFT VISUAL STUDIO 10.0\VC\INCLUDE\OSTREAM
C:\PROGRAM FILES (X86)\MICROSOFT VISUAL STUDIO 10.0\VC\INCLUDE\IOS
C:\PROGRAM FILES (X86)\MICROSOFT VISUAL STUDIO 10.0\VC\INCLUDE\XLOCNUM
C:\PROGRAM FILES (X86)\MICROSOFT VISUAL STUDIO 10.0\VC\INCLUDE\CLIMITS
C:\PROGRAM FILES (X86)\MICROSOFT VISUAL STUDIO 10.0\VC\INCLUDE\YVALS.H
C:\PROGRAM FILES (X86)\MICROSOFT VISUAL STUDIO 10.0\VC\INCLUDE\CRTDEFS.H
C:\PROGRAM FILES (X86)\MICROSOFT VISUAL STUDIO 10.0\VC\INCLUDE\SAL.H
C:\PROGRAM FILES (X86)\MICROSOFT VISUAL STUDIO 10.0\VC\INCLUDE\CODEANALYSIS\SOURCEANNOTATIONS.H
C:\PROGRAM FILES (X86)\MICROSOFT VISUAL STUDIO 10.0\VC\INCLUDE\VADEFS.H
C:\PROGRAM FILES (X86)\MICROSOFT VISUAL STUDIO 10.0\VC\INCLUDE\USE_ANSI.H
C:\PROGRAM FILES (X86)\MICROSOFT VISUAL STUDIO 10.0\VC\INCLUDE\LIMITS.H
C:\PROGRAM FILES (X86)\MICROSOFT VISUAL STUDIO 10.0\VC\INCLUDE\CMATH
C:\PROGRAM FILES (X86)\MICROSOFT VISUAL STUDIO 10.0\VC\INCLUDE\MATH.H
C:\PROGRAM FILES (X86)\MICROSOFT VISUAL STUDIO 10.0\VC\INCLUDE\CSTDIO
C:\PROGRAM FILES (X86)\MICROSOFT VISUAL STUDIO 10.0\VC\INCLUDE\STDIO.H
C:\PROGRAM FILES (X86)\MICROSOFT VISUAL STUDIO 10.0\VC\INCLUDE\SWPRINTF.INL
C:\PROGRAM FILES (X86)\MICROSOFT VISUAL STUDIO 10.0\VC\INCLUDE\CSTDLIB
C:\PROGRAM FILES (X86)\MICROSOFT VISUAL STUDIO 10.0\VC\INCLUDE\STDLIB.H
C:\PROGRAM FILES (X86)\MICROSOFT VISUAL STUDIO 10.0\VC\INCLUDE\STREAMBUF
C:\PROGRAM FILES (X86)\MICROSOFT VISUAL STUDIO 10.0\VC\INCLUDE\XIOSBASE
C:\PROGRAM FILES (X86)\MICROSOFT VISUAL STUDIO 10.0\VC\INCLUDE\XLOCALE
C:\PROGRAM FILES (X86)\MICROSOFT VISUAL STUDIO 10.0\VC\INCLUDE\CSTRING
C:\PROGRAM FILES (X86)\MICROSOFT VISUAL STUDIO 10.0\VC\INCLUDE\STRING.H
C:\PROGRAM FILES (X86)\MICROSOFT VISUAL STUDIO 10.0\VC\INCLUDE\STDEXCEPT
C:\PROGRAM FILES (X86)\MICROSOFT VISUAL STUDIO 10.0\VC\INCLUDE\EXCEPTION
C:\PROGRAM FILES (X86)\MICROSOFT VISUAL STUDIO 10.0\VC\INCLUDE\XSTDDEF
C:\PROGRAM FILES (X86)\MICROSOFT VISUAL STUDIO 10.0\VC\INCLUDE\CSTDDEF
C:\PROGRAM FILES (X86)\MICROSOFT VISUAL STUDIO 10.0\VC\INCLUDE\STDDEF.H
C:\PROGRAM FILES (X86)\MICROSOFT VISUAL STUDIO 10.0\VC\INCLUDE\EH.H
C:\PROGRAM FILES (X86)\MICROSOFT VISUAL STUDIO 10.0\VC\INCLUDE\MALLOC.H
C:\PROGRAM FILES (X86)\MICROSOFT VISUAL STUDIO 10.0\VC\INCLUDE\XSTRING
C:\PROGRAM FILES (X86)\MICROSOFT VISUAL STUDIO 10.0\VC\INCLUDE\XMEMORY
C:\PROGRAM FILES (X86)\MICROSOFT VISUAL STUDIO 10.0\VC\INCLUDE\NEW
C:\PROGRAM FILES (X86)\MICROSOFT VISUAL STUDIO 10.0\VC\INCLUDE\XUTILITY
C:\PROGRAM FILES (X86)\MICROSOFT VISUAL STUDIO 10.0\VC\INCLUDE\UTILITY
C:\PROGRAM FILES (X86)\MICROSOFT VISUAL STUDIO 10.0\VC\INCLUDE\IOSFWD
C:\PROGRAM FILES (X86)\MICROSOFT VISUAL STUDIO 10.0\VC\INCLUDE\CWCHAR
C:\PROGRAM FILES (X86)\MICROSOFT VISUAL STUDIO 10.0\VC\INCLUDE\WCHAR.H
C:\PROGRAM FILES (X86)\MICROSOFT VISUAL STUDIO 10.0\VC\INCLUDE\WTIME.INL
C:\PROGRAM FILES (X86)\MICROSOFT VISUAL STUDIO 10.0\VC\INCLUDE\CRTDBG.H
C:\PROGRAM FILES (X86)\MICROSOFT VISUAL STUDIO 10.0\VC\INCLUDE\TYPE_TRAITS
C:\PROGRAM FILES (X86)\MICROSOFT VISUAL STUDIO 10.0\VC\INCLUDE\LIMITS
C:\PROGRAM FILES (X86)\MICROSOFT VISUAL STUDIO 10.0\VC\INCLUDE\YMATH.H
C:\PROGRAM FILES (X86)\MICROSOFT VISUAL STUDIO 10.0\VC\INCLUDE\CFLOAT
C:\PROGRAM FILES (X86)\MICROSOFT VISUAL STUDIO 10.0\VC\INCLUDE\FLOAT.H
C:\PROGRAM FILES (X86)\MICROSOFT VISUAL STUDIO 10.0\VC\INCLUDE\CRTWRN.H
C:\PROGRAM FILES (X86)\MICROSOFT VISUAL STUDIO 10.0\VC\INCLUDE\XTR1COMMON
C:\PROGRAM FILES (X86)\MICROSOFT VISUAL STUDIO 10.0\VC\INCLUDE\XFWRAP
C:\PROGRAM FILES (X86)\MICROSOFT VISUAL STUDIO 10.0\VC\INCLUDE\XFWRAP1
C:\PROGRAM FILES (X86)\MICROSOFT VISUAL STUDIO 10.0\VC\INCLUDE\XXTYPE_TRAITS
C:\PROGRAM FILES (X86)\MICROSOFT VISUAL STUDIO 10.0\VC\INCLUDE\TYPEINFO
C:\PROGRAM FILES (X86)\MICROSOFT VISUAL STUDIO 10.0\VC\INCLUDE\XLOCINFO
C:\PROGRAM FILES (X86)\MICROSOFT VISUAL STUDIO 10.0\VC\INCLUDE\XLOCINFO.H
C:\PROGRAM FILES (X86)\MICROSOFT VISUAL STUDIO 10.0\VC\INCLUDE\CTYPE.H
C:\PROGRAM FILES (X86)\MICROSOFT VISUAL STUDIO 10.0\VC\INCLUDE\LOCALE.H
C:\PROGRAM FILES (X86)\MICROSOFT VISUAL STUDIO 10.0\VC\INCLUDE\XDEBUG
C:\PROGRAM FILES (X86)\MICROSOFT VISUAL STUDIO 10.0\VC\INCLUDE\SYSTEM_ERROR
C:\PROGRAM FILES (X86)\MICROSOFT VISUAL STUDIO 10.0\VC\INCLUDE\CERRNO
C:\PROGRAM FILES (X86)\MICROSOFT VISUAL STUDIO 10.0\VC\INCLUDE\ERRNO.H
C:\PROGRAM FILES (X86)\MICROSOFT VISUAL STUDIO 10.0\VC\INCLUDE\SHARE.H
C:\PROGRAM FILES (X86)\MICROSOFT VISUAL STUDIO 10.0\VC\INCLUDE\STRING
C:\PROGRAM FILES (X86)\MICROSOFT VISUAL STUDIO 10.0\VC\INCLUDE\LIST
C:\PROGRAM FILES (X86)\MICROSOFT VISUAL STUDIO 10.0\VC\INCLUDE\XFUNCTIONAL
C:\PROGRAM FILES (X86)\MICROSOFT VISUAL STUDIO 10.0\VC\INCLUDE\MEMORY
C:\PROGRAM FILES (X86)\MICROSOFT VISUAL STUDIO 10.0\VC\INCLUDE\INTRIN.H
C:\PROGRAM FILES (X86)\MICROSOFT VISUAL STUDIO 10.0\VC\INCLUDE\SETJMP.H
C:\PROGRAM FILES (X86)\MICROSOFT VISUAL STUDIO 10.0\VC\INCLUDE\IMMINTRIN.H
C:\PROGRAM FILES (X86)\MICROSOFT VISUAL STUDIO 10.0\VC\INCLUDE\WMMINTRIN.H
C:\PROGRAM FILES (X86)\MICROSOFT VISUAL STUDIO 10.0\VC\INCLUDE\NMMINTRIN.H
C:\PROGRAM FILES (X86)\MICROSOFT VISUAL STUDIO 10.0\VC\INCLUDE\SMMINTRIN.H
C:\PROGRAM FILES (X86)\MICROSOFT VISUAL STUDIO 10.0\VC\INCLUDE\TMMINTRIN.H
C:\PROGRAM FILES (X86)\MICROSOFT VISUAL STUDIO 10.0\VC\INCLUDE\PMMINTRIN.H
C:\PROGRAM FILES (X86)\MICROSOFT VISUAL STUDIO 10.0\VC\INCLUDE\EMMINTRIN.H
C:\PROGRAM FILES (X86)\MICROSOFT VISUAL STUDIO 10.0\VC\INCLUDE\XMMINTRIN.H
C:\PROGRAM FILES (X86)\MICROSOFT VISUAL STUDIO 10.0\VC\INCLUDE\MMINTRIN.H
C:\PROGRAM FILES (X86)\MICROSOFT VISUAL STUDIO 10.0\VC\INCLUDE\AMMINTRIN.H
C:\PROGRAM FILES (X86)\MICROSOFT VISUAL STUDIO 10.0\VC\INCLUDE\MM3DNOW.H
C:\PROGRAM FILES (X86)\MICROSOFT VISUAL STUDIO 10.0\VC\INCLUDE\XXSHARED
C:\USERS\Y400\DOCUMENTS\VISUAL STUDIO 2010\PROJECTS\SHOPFRONT\SHOPFRONT\USER.H
C:\PROGRAM FILES (X86)\MICROSOFT VISUAL STUDIO 10.0\VC\INCLUDE\FSTREAM
C:\USERS\Y400\DOCUMENTS\VISUAL STUDIO 2010\PROJECTS\SHOPFRONT\SHOPFRONT\RATING.H
^C:\USERS\Y400\DOCUMENTS\VISUAL STUDIO 2010\PROJECTS\SHOPFRONT\SHOPFRONT\ADMIN.CPP
C:\USERS\Y400\DOCUMENTS\VISUAL STUDIO 2010\PROJECTS\SHOPFRONT\SHOPFRONT\ADMIN.H
C:\USERS\Y400\DOCUMENTS\VISUAL STUDIO 2010\PROJECTS\SHOPFRONT\SHOPFRONT\USER.H
C:\PROGRAM FILES (X86)\MICROSOFT VISUAL STUDIO 10.0\VC\INCLUDE\IOSTREAM
C:\PROGRAM FILES (X86)\MICROSOFT VISUAL STUDIO 10.0\VC\INCLUDE\ISTREAM
C:\PROGRAM FILES (X86)\MICROSOFT VISUAL STUDIO 10.0\VC\INCLUDE\OSTREAM
C:\PROGRAM FILES (X86)\MICROSOFT VISUAL STUDIO 10.0\VC\INCLUDE\IOS
C:\PROGRAM FILES (X86)\MICROSOFT VISUAL STUDIO 10.0\VC\INCLUDE\XLOCNUM
C:\PROGRAM FILES (X86)\MICROSOFT VISUAL STUDIO 10.0\VC\INCLUDE\CLIMITS
C:\PROGRAM FILES (X86)\MICROSOFT VISUAL STUDIO 10.0\VC\INCLUDE\YVALS.H
C:\PROGRAM FILES (X86)\MICROSOFT VISUAL STUDIO 10.0\VC\INCLUDE\CRTDEFS.H
C:\PROGRAM FILES (X86)\MICROSOFT VISUAL STUDIO 10.0\VC\INCLUDE\SAL.H
C:\PROGRAM FILES (X86)\MICROSOFT VISUAL STUDIO 10.0\VC\INCLUDE\CODEANALYSIS\SOURCEANNOTATIONS.H
C:\PROGRAM FILES (X86)\MICROSOFT VISUAL STUDIO 10.0\VC\INCLUDE\VADEFS.H
C:\PROGRAM FILES (X86)\MICROSOFT VISUAL STUDIO 10.0\VC\INCLUDE\USE_ANSI.H
C:\PROGRAM FILES (X86)\MICROSOFT VISUAL STUDIO 10.0\VC\INCLUDE\LIMITS.H
C:\PROGRAM FILES (X86)\MICROSOFT VISUAL STUDIO 10.0\VC\INCLUDE\CMATH
C:\PROGRAM FILES (X86)\MICROSOFT VISUAL STUDIO 10.0\VC\INCLUDE\MATH.H
C:\PROGRAM FILES (X86)\MICROSOFT VISUAL STUDIO 10.0\VC\INCLUDE\CSTDIO
C:\PROGRAM FILES (X86)\MICROSOFT VISUAL STUDIO 10.0\VC\INCLUDE\STDIO.H
C:\PROGRAM FILES (X86)\MICROSOFT VISUAL STUDIO 10.0\VC\INCLUDE\SWPRINTF.INL
C:\PROGRAM FILES (X86)\MICROSOFT VISUAL STUDIO 10.0\VC\INCLUDE\CSTDLIB
C:\PROGRAM FILES (X86)\MICROSOFT VISUAL STUDIO 10.0\VC\INCLUDE\STDLIB.H
C:\PROGRAM FILES (X86)\MICROSOFT VISUAL STUDIO 10.0\VC\INCLUDE\STREAMBUF
C:\PROGRAM FILES (X86)\MICROSOFT VISUAL STUDIO 10.0\VC\INCLUDE\XIOSBASE
C:\PROGRAM FILES (X86)\MICROSOFT VISUAL STUDIO 10.0\VC\INCLUDE\XLOCALE
C:\PROGRAM FILES (X86)\MICROSOFT VISUAL STUDIO 10.0\VC\INCLUDE\CSTRING
C:\PROGRAM FILES (X86)\MICROSOFT VISUAL STUDIO 10.0\VC\INCLUDE\STRING.H
C:\PROGRAM FILES (X86)\MICROSOFT VISUAL STUDIO 10.0\VC\INCLUDE\STDEXCEPT
C:\PROGRAM FILES (X86)\MICROSOFT VISUAL STUDIO 10.0\VC\INCLUDE\EXCEPTION
C:\PROGRAM FILES (X86)\MICROSOFT VISUAL STUDIO 10.0\VC\INCLUDE\XSTDDEF
C:\PROGRAM FILES (X86)\MICROSOFT VISUAL STUDIO 10.0\VC\INCLUDE\CSTDDEF
C:\PROGRAM FILES (X86)\MICROSOFT VISUAL STUDIO 10.0\VC\INCLUDE\STDDEF.H
C:\PROGRAM FILES (X86)\MICROSOFT VISUAL STUDIO 10.0\VC\INCLUDE\EH.H
C:\PROGRAM FILES (X86)\MICROSOFT VISUAL STUDIO 10.0\VC\INCLUDE\MALLOC.H
C:\PROGRAM FILES (X86)\MICROSOFT VISUAL STUDIO 10.0\VC\INCLUDE\XSTRING
C:\PROGRAM FILES (X86)\MICROSOFT VISUAL STUDIO 10.0\VC\INCLUDE\XMEMORY
C:\PROGRAM FILES (X86)\MICROSOFT VISUAL STUDIO 10.0\VC\INCLUDE\NEW
C:\PROGRAM FILES (X86)\MICROSOFT VISUAL STUDIO 10.0\VC\INCLUDE\XUTILITY
C:\PROGRAM FILES (X86)\MICROSOFT VISUAL STUDIO 10.0\VC\INCLUDE\UTILITY
C:\PROGRAM FILES (X86)\MICROSOFT VISUAL STUDIO 10.0\VC\INCLUDE\IOSFWD
C:\PROGRAM FILES (X86)\MICROSOFT VISUAL STUDIO 10.0\VC\INCLUDE\CWCHAR
C:\PROGRAM FILES (X86)\MICROSOFT VISUAL STUDIO 10.0\VC\INCLUDE\WCHAR.H
C:\PROGRAM FILES (X86)\MICROSOFT VISUAL STUDIO 10.0\VC\INCLUDE\WTIME.INL
C:\PROGRAM FILES (X86)\MICROSOFT VISUAL STUDIO 10.0\VC\INCLUDE\CRTDBG.H
C:\PROGRAM FILES (X86)\MICROSOFT VISUAL STUDIO 10.0\VC\INCLUDE\TYPE_TRAITS
C:\PROGRAM FILES (X86)\MICROSOFT VISUAL STUDIO 10.0\VC\INCLUDE\LIMITS
C:\PROGRAM FILES (X86)\MICROSOFT VISUAL STUDIO 10.0\VC\INCLUDE\YMATH.H
C:\PROGRAM FILES (X86)\MICROSOFT VISUAL STUDIO 10.0\VC\INCLUDE\CFLOAT
C:\PROGRAM FILES (X86)\MICROSOFT VISUAL STUDIO 10.0\VC\INCLUDE\FLOAT.H
C:\PROGRAM FILES (X86)\MICROSOFT VISUAL STUDIO 10.0\VC\INCLUDE\CRTWRN.H
C:\PROGRAM FILES (X86)\MICROSOFT VISUAL STUDIO 10.0\VC\INCLUDE\XTR1COMMON
C:\PROGRAM FILES (X86)\MICROSOFT VISUAL STUDIO 10.0\VC\INCLUDE\XFWRAP
C:\PROGRAM FILES (X86)\MICROSOFT VISUAL STUDIO 10.0\VC\INCLUDE\XFWRAP1
C:\PROGRAM FILES (X86)\MICROSOFT VISUAL STUDIO 10.0\VC\INCLUDE\XXTYPE_TRAITS
C:\PROGRAM FILES (X86)\MICROSOFT VISUAL STUDIO 10.0\VC\INCLUDE\TYPEINFO
C:\PROGRAM FILES (X86)\MICROSOFT VISUAL STUDIO 10.0\VC\INCLUDE\XLOCINFO
C:\PROGRAM FILES (X86)\MICROSOFT VISUAL STUDIO 10.0\VC\INCLUDE\XLOCINFO.H
C:\PROGRAM FILES (X86)\MICROSOFT VISUAL STUDIO 10.0\VC\INCLUDE\CTYPE.H
C:\PROGRAM FILES (X86)\MICROSOFT VISUAL STUDIO 10.0\VC\INCLUDE\LOCALE.H
C:\PROGRAM FILES (X86)\MICROSOFT VISUAL STUDIO 10.0\VC\INCLUDE\XDEBUG
C:\PROGRAM FILES (X86)\MICROSOFT VISUAL STUDIO 10.0\VC\INCLUDE\SYSTEM_ERROR
C:\PROGRAM FILES (X86)\MICROSOFT VISUAL STUDIO 10.0\VC\INCLUDE\CERRNO
C:\PROGRAM FILES (X86)\MICROSOFT VISUAL STUDIO 10.0\VC\INCLUDE\ERRNO.H
C:\PROGRAM FILES (X86)\MICROSOFT VISUAL STUDIO 10.0\VC\INCLUDE\SHARE.H
C:\PROGRAM FILES (X86)\MICROSOFT VISUAL STUDIO 10.0\VC\INCLUDE\LIST
C:\PROGRAM FILES (X86)\MICROSOFT VISUAL STUDIO 10.0\VC\INCLUDE\XFUNCTIONAL
C:\PROGRAM FILES (X86)\MICROSOFT VISUAL STUDIO 10.0\VC\INCLUDE\MEMORY
C:\PROGRAM FILES (X86)\MICROSOFT VISUAL STUDIO 10.0\VC\INCLUDE\INTRIN.H
C:\PROGRAM FILES (X86)\MICROSOFT VISUAL STUDIO 10.0\VC\INCLUDE\SETJMP.H
C:\PROGRAM FILES (X86)\MICROSOFT VISUAL STUDIO 10.0\VC\INCLUDE\IMMINTRIN.H
C:\PROGRAM FILES (X86)\MICROSOFT VISUAL STUDIO 10.0\VC\INCLUDE\WMMINTRIN.H
C:\PROGRAM FILES (X86)\MICROSOFT VISUAL STUDIO 10.0\VC\INCLUDE\NMMINTRIN.H
C:\PROGRAM FILES (X86)\MICROSOFT VISUAL STUDIO 10.0\VC\INCLUDE\SMMINTRIN.H
C:\PROGRAM FILES (X86)\MICROSOFT VISUAL STUDIO 10.0\VC\INCLUDE\TMMINTRIN.H
C:\PROGRAM FILES (X86)\MICROSOFT VISUAL STUDIO 10.0\VC\INCLUDE\PMMINTRIN.H
C:\PROGRAM FILES (X86)\MICROSOFT VISUAL STUDIO 10.0\VC\INCLUDE\EMMINTRIN.H
C:\PROGRAM FILES (X86)\MICROSOFT VISUAL STUDIO 10.0\VC\INCLUDE\XMMINTRIN.H
C:\PROGRAM FILES (X86)\MICROSOFT VISUAL STUDIO 10.0\VC\INCLUDE\MMINTRIN.H
C:\PROGRAM FILES (X86)\MICROSOFT VISUAL STUDIO 10.0\VC\INCLUDE\AMMINTRIN.H
C:\PROGRAM FILES (X86)\MICROSOFT VISUAL STUDIO 10.0\VC\INCLUDE\MM3DNOW.H
C:\PROGRAM FILES (X86)\MICROSOFT VISUAL STUDIO 10.0\VC\INCLUDE\XXSHARED
C:\PROGRAM FILES (X86)\MICROSOFT VISUAL STUDIO 10.0\VC\INCLUDE\FSTREAM
C:\USERS\Y400\DOCUMENTS\VISUAL STUDIO 2010\PROJECTS\SHOPFRONT\SHOPFRONT\GAME.H
C:\PROGRAM FILES (X86)\MICROSOFT VISUAL STUDIO 10.0\VC\INCLUDE\STRING
C:\USERS\Y400\DOCUMENTS\VISUAL STUDIO 2010\PROJECTS\SHOPFRONT\SHOPFRONT\RATING.H
C:\PROGRAM FILES (X86)\MICROSOFT VISUAL STUDIO 10.0\VC\BIN\1033\CLUI.DLL
C:\WINDOWS\GLOBALIZATION\SORTING\SORTDEFAULT.NLS
C:\WINDOWS\SYSTEM32\TZRES.DLL
^E:\SCHOOL STUFF\DSAL\SHOPFRONT\USER.CPP
E:\SCHOOL STUFF\DSAL\SHOPFRONT\USER.H
E:\VISUAL STUDIO\VISUAL STUDIO 2010\VC\INCLUDE\IOSTREAM
E:\VISUAL STUDIO\VISUAL STUDIO 2010\VC\INCLUDE\ISTREAM
E:\VISUAL STUDIO\VISUAL STUDIO 2010\VC\INCLUDE\OSTREAM
E:\VISUAL STUDIO\VISUAL STUDIO 2010\VC\INCLUDE\IOS
E:\VISUAL STUDIO\VISUAL STUDIO 2010\VC\INCLUDE\XLOCNUM
E:\VISUAL STUDIO\VISUAL STUDIO 2010\VC\INCLUDE\CLIMITS
E:\VISUAL STUDIO\VISUAL STUDIO 2010\VC\INCLUDE\YVALS.H
E:\VISUAL STUDIO\VISUAL STUDIO 2010\VC\INCLUDE\CRTDEFS.H
E:\VISUAL STUDIO\VISUAL STUDIO 2010\VC\INCLUDE\SAL.H
E:\VISUAL STUDIO\VISUAL STUDIO 2010\VC\INCLUDE\CODEANALYSIS\SOURCEANNOTATIONS.H
E:\VISUAL STUDIO\VISUAL STUDIO 2010\VC\INCLUDE\VADEFS.H
E:\VISUAL STUDIO\VISUAL STUDIO 2010\VC\INCLUDE\USE_ANSI.H
E:\VISUAL STUDIO\VISUAL STUDIO 2010\VC\INCLUDE\LIMITS.H
E:\VISUAL STUDIO\VISUAL STUDIO 2010\VC\INCLUDE\CMATH
E:\VISUAL STUDIO\VISUAL STUDIO 2010\VC\INCLUDE\MATH.H
E:\VISUAL STUDIO\VISUAL STUDIO 2010\VC\INCLUDE\CSTDIO
E:\VISUAL STUDIO\VISUAL STUDIO 2010\VC\INCLUDE\STDIO.H
E:\VISUAL STUDIO\VISUAL STUDIO 2010\VC\INCLUDE\SWPRINTF.INL
E:\VISUAL STUDIO\VISUAL STUDIO 2010\VC\INCLUDE\CSTDLIB
E:\VISUAL STUDIO\VISUAL STUDIO 2010\VC\INCLUDE\STDLIB.H
E:\VISUAL STUDIO\VISUAL STUDIO 2010\VC\INCLUDE\STREAMBUF
E:\VISUAL STUDIO\VISUAL STUDIO 2010\VC\INCLUDE\XIOSBASE
E:\VISUAL STUDIO\VISUAL STUDIO 2010\VC\INCLUDE\XLOCALE
E:\VISUAL STUDIO\VISUAL STUDIO 2010\VC\INCLUDE\CSTRING
E:\VISUAL STUDIO\VISUAL STUDIO 2010\VC\INCLUDE\STRING.H
E:\VISUAL STUDIO\VISUAL STUDIO 2010\VC\INCLUDE\STDEXCEPT
E:\VISUAL STUDIO\VISUAL STUDIO 2010\VC\INCLUDE\EXCEPTION
E:\VISUAL STUDIO\VISUAL STUDIO 2010\VC\INCLUDE\XSTDDEF
E:\VISUAL STUDIO\VISUAL STUDIO 2010\VC\INCLUDE\CSTDDEF
E:\VISUAL STUDIO\VISUAL STUDIO 2010\VC\INCLUDE\STDDEF.H
E:\VISUAL STUDIO\VISUAL STUDIO 2010\VC\INCLUDE\EH.H
E:\VISUAL STUDIO\VISUAL STUDIO 2010\VC\INCLUDE\MALLOC.H
E:\VISUAL STUDIO\VISUAL STUDIO 2010\VC\INCLUDE\XSTRING
E:\VISUAL STUDIO\VISUAL STUDIO 2010\VC\INCLUDE\XMEMORY
E:\VISUAL STUDIO\VISUAL STUDIO 2010\VC\INCLUDE\NEW
E:\VISUAL STUDIO\VISUAL STUDIO 2010\VC\INCLUDE\XUTILITY
E:\VISUAL STUDIO\VISUAL STUDIO 2010\VC\INCLUDE\UTILITY
E:\VISUAL STUDIO\VISUAL STUDIO 2010\VC\INCLUDE\IOSFWD
E:\VISUAL STUDIO\VISUAL STUDIO 2010\VC\INCLUDE\CWCHAR
E:\VISUAL STUDIO\VISUAL STUDIO 2010\VC\INCLUDE\WCHAR.H
E:\VISUAL STUDIO\VISUAL STUDIO 2010\VC\INCLUDE\WTIME.INL
E:\VISUAL STUDIO\VISUAL STUDIO 2010\VC\INCLUDE\CRTDBG.H
E:\VISUAL STUDIO\VISUAL STUDIO 2010\VC\INCLUDE\TYPE_TRAITS
E:\VISUAL STUDIO\VISUAL STUDIO 2010\VC\INCLUDE\LIMITS
E:\VISUAL STUDIO\VISUAL STUDIO 2010\VC\INCLUDE\YMATH.H
E:\VISUAL STUDIO\VISUAL STUDIO 2010\VC\INCLUDE\CFLOAT
E:\VISUAL STUDIO\VISUAL STUDIO 2010\VC\INCLUDE\FLOAT.H
E:\VISUAL STUDIO\VISUAL STUDIO 2010\VC\INCLUDE\CRTWRN.H
E:\VISUAL STUDIO\VISUAL STUDIO 2010\VC\INCLUDE\XTR1COMMON
E:\VISUAL STUDIO\VISUAL STUDIO 2010\VC\INCLUDE\XFWRAP
E:\VISUAL STUDIO\VISUAL STUDIO 2010\VC\INCLUDE\XFWRAP1
E:\VISUAL STUDIO\VISUAL STUDIO 2010\VC\INCLUDE\XXTYPE_TRAITS
E:\VISUAL STUDIO\VISUAL STUDIO 2010\VC\INCLUDE\TYPEINFO
E:\VISUAL STUDIO\VISUAL STUDIO 2010\VC\INCLUDE\XLOCINFO
E:\VISUAL STUDIO\VISUAL STUDIO 2010\VC\INCLUDE\XLOCINFO.H
E:\VISUAL STUDIO\VISUAL STUDIO 2010\VC\INCLUDE\CTYPE.H
E:\VISUAL STUDIO\VISUAL STUDIO 2010\VC\INCLUDE\LOCALE.H
E:\VISUAL STUDIO\VISUAL STUDIO 2010\VC\INCLUDE\XDEBUG
E:\VISUAL STUDIO\VISUAL STUDIO 2010\VC\INCLUDE\SYSTEM_ERROR
E:\VISUAL STUDIO\VISUAL STUDIO 2010\VC\INCLUDE\CERRNO
E:\VISUAL STUDIO\VISUAL STUDIO 2010\VC\INCLUDE\ERRNO.H
E:\VISUAL STUDIO\VISUAL STUDIO 2010\VC\INCLUDE\SHARE.H
E:\VISUAL STUDIO\VISUAL STUDIO 2010\VC\INCLUDE\LIST
E:\VISUAL STUDIO\VISUAL STUDIO 2010\VC\INCLUDE\XFUNCTIONAL
E:\VISUAL STUDIO\VISUAL STUDIO 2010\VC\INCLUDE\MEMORY
E:\VISUAL STUDIO\VISUAL STUDIO 2010\VC\INCLUDE\INTRIN.H
E:\VISUAL STUDIO\VISUAL STUDIO 2010\VC\INCLUDE\SETJMP.H
E:\VISUAL STUDIO\VISUAL STUDIO 2010\VC\INCLUDE\IMMINTRIN.H
E:\VISUAL STUDIO\VISUAL STUDIO 2010\VC\INCLUDE\WMMINTRIN.H
E:\VISUAL STUDIO\VISUAL STUDIO 2010\VC\INCLUDE\NMMINTRIN.H
E:\VISUAL STUDIO\VISUAL STUDIO 2010\VC\INCLUDE\SMMINTRIN.H
E:\VISUAL STUDIO\VISUAL STUDIO 2010\VC\INCLUDE\TMMINTRIN.H
E:\VISUAL STUDIO\VISUAL STUDIO 2010\VC\INCLUDE\PMMINTRIN.H
E:\VISUAL STUDIO\VISUAL STUDIO 2010\VC\INCLUDE\EMMINTRIN.H
E:\VISUAL STUDIO\VISUAL STUDIO 2010\VC\INCLUDE\XMMINTRIN.H
E:\VISUAL STUDIO\VISUAL STUDIO 2010\VC\INCLUDE\MMINTRIN.H
E:\VISUAL STUDIO\VISUAL STUDIO 2010\VC\INCLUDE\MM3DNOW.H
E:\VISUAL STUDIO\VISUAL STUDIO 2010\VC\INCLUDE\XXSHARED
E:\VISUAL STUDIO\VISUAL STUDIO 2010\VC\INCLUDE\FSTREAM
E:\SCHOOL STUFF\DSAL\SHOPFRONT\GAME.H
E:\VISUAL STUDIO\VISUAL STUDIO 2010\VC\INCLUDE\STRING
E:\SCHOOL STUFF\DSAL\SHOPFRONT\RATING.H
E:\VISUAL STUDIO\VISUAL STUDIO 2010\VC\BIN\1033\CLUI.DLL
C:\WINDOWS\GLOBALIZATION\SORTING\SORTDEFAULT.NLS
C:\WINDOWS\SYSTEM32\TZRES.DLL
^E:\SCHOOL STUFF\DSAL\SHOPFRONT\SHOPPER.CPP
E:\SCHOOL STUFF\DSAL\SHOPFRONT\SHOPPER.H
E:\SCHOOL STUFF\DSAL\SHOPFRONT\GAME.H
E:\VISUAL STUDIO\VISUAL STUDIO 2010\VC\INCLUDE\IOSTREAM
E:\VISUAL STUDIO\VISUAL STUDIO 2010\VC\INCLUDE\ISTREAM
E:\VISUAL STUDIO\VISUAL STUDIO 2010\VC\INCLUDE\OSTREAM
E:\VISUAL STUDIO\VISUAL STUDIO 2010\VC\INCLUDE\IOS
E:\VISUAL STUDIO\VISUAL STUDIO 2010\VC\INCLUDE\XLOCNUM
E:\VISUAL STUDIO\VISUAL STUDIO 2010\VC\INCLUDE\CLIMITS
E:\VISUAL STUDIO\VISUAL STUDIO 2010\VC\INCLUDE\YVALS.H
E:\VISUAL STUDIO\VISUAL STUDIO 2010\VC\INCLUDE\CRTDEFS.H
E:\VISUAL STUDIO\VISUAL STUDIO 2010\VC\INCLUDE\SAL.H
E:\VISUAL STUDIO\VISUAL STUDIO 2010\VC\INCLUDE\CODEANALYSIS\SOURCEANNOTATIONS.H
E:\VISUAL STUDIO\VISUAL STUDIO 2010\VC\INCLUDE\VADEFS.H
E:\VISUAL STUDIO\VISUAL STUDIO 2010\VC\INCLUDE\USE_ANSI.H
E:\VISUAL STUDIO\VISUAL STUDIO 2010\VC\INCLUDE\LIMITS.H
E:\VISUAL STUDIO\VISUAL STUDIO 2010\VC\INCLUDE\CMATH
E:\VISUAL STUDIO\VISUAL STUDIO 2010\VC\INCLUDE\MATH.H
E:\VISUAL STUDIO\VISUAL STUDIO 2010\VC\INCLUDE\CSTDIO
E:\VISUAL STUDIO\VISUAL STUDIO 2010\VC\INCLUDE\STDIO.H
E:\VISUAL STUDIO\VISUAL STUDIO 2010\VC\INCLUDE\SWPRINTF.INL
E:\VISUAL STUDIO\VISUAL STUDIO 2010\VC\INCLUDE\CSTDLIB
E:\VISUAL STUDIO\VISUAL STUDIO 2010\VC\INCLUDE\STDLIB.H
E:\VISUAL STUDIO\VISUAL STUDIO 2010\VC\INCLUDE\STREAMBUF
E:\VISUAL STUDIO\VISUAL STUDIO 2010\VC\INCLUDE\XIOSBASE
E:\VISUAL STUDIO\VISUAL STUDIO 2010\VC\INCLUDE\XLOCALE
E:\VISUAL STUDIO\VISUAL STUDIO 2010\VC\INCLUDE\CSTRING
E:\VISUAL STUDIO\VISUAL STUDIO 2010\VC\INCLUDE\STRING.H
E:\VISUAL STUDIO\VISUAL STUDIO 2010\VC\INCLUDE\STDEXCEPT
E:\VISUAL STUDIO\VISUAL STUDIO 2010\VC\INCLUDE\EXCEPTION
E:\VISUAL STUDIO\VISUAL STUDIO 2010\VC\INCLUDE\XSTDDEF
E:\VISUAL STUDIO\VISUAL STUDIO 2010\VC\INCLUDE\CSTDDEF
E:\VISUAL STUDIO\VISUAL STUDIO 2010\VC\INCLUDE\STDDEF.H
E:\VISUAL STUDIO\VISUAL STUDIO 2010\VC\INCLUDE\EH.H
E:\VISUAL STUDIO\VISUAL STUDIO 2010\VC\INCLUDE\MALLOC.H
E:\VISUAL STUDIO\VISUAL STUDIO 2010\VC\INCLUDE\XSTRING
E:\VISUAL STUDIO\VISUAL STUDIO 2010\VC\INCLUDE\XMEMORY
E:\VISUAL STUDIO\VISUAL STUDIO 2010\VC\INCLUDE\NEW
E:\VISUAL STUDIO\VISUAL STUDIO 2010\VC\INCLUDE\XUTILITY
E:\VISUAL STUDIO\VISUAL STUDIO 2010\VC\INCLUDE\UTILITY
E:\VISUAL STUDIO\VISUAL STUDIO 2010\VC\INCLUDE\IOSFWD
E:\VISUAL STUDIO\VISUAL STUDIO 2010\VC\INCLUDE\CWCHAR
E:\VISUAL STUDIO\VISUAL STUDIO 2010\VC\INCLUDE\WCHAR.H
E:\VISUAL STUDIO\VISUAL STUDIO 2010\VC\INCLUDE\WTIME.INL
E:\VISUAL STUDIO\VISUAL STUDIO 2010\VC\INCLUDE\CRTDBG.H
E:\VISUAL STUDIO\VISUAL STUDIO 2010\VC\INCLUDE\TYPE_TRAITS
E:\VISUAL STUDIO\VISUAL STUDIO 2010\VC\INCLUDE\LIMITS
E:\VISUAL STUDIO\VISUAL STUDIO 2010\VC\INCLUDE\YMATH.H
E:\VISUAL STUDIO\VISUAL STUDIO 2010\VC\INCLUDE\CFLOAT
E:\VISUAL STUDIO\VISUAL STUDIO 2010\VC\INCLUDE\FLOAT.H
E:\VISUAL STUDIO\VISUAL STUDIO 2010\VC\INCLUDE\CRTWRN.H
E:\VISUAL STUDIO\VISUAL STUDIO 2010\VC\INCLUDE\XTR1COMMON
E:\VISUAL STUDIO\VISUAL STUDIO 2010\VC\INCLUDE\XFWRAP
E:\VISUAL STUDIO\VISUAL STUDIO 2010\VC\INCLUDE\XFWRAP1
E:\VISUAL STUDIO\VISUAL STUDIO 2010\VC\INCLUDE\XXTYPE_TRAITS
E:\VISUAL STUDIO\VISUAL STUDIO 2010\VC\INCLUDE\TYPEINFO
E:\VISUAL STUDIO\VISUAL STUDIO 2010\VC\INCLUDE\XLOCINFO
E:\VISUAL STUDIO\VISUAL STUDIO 2010\VC\INCLUDE\XLOCINFO.H
E:\VISUAL STUDIO\VISUAL STUDIO 2010\VC\INCLUDE\CTYPE.H
E:\VISUAL STUDIO\VISUAL STUDIO 2010\VC\INCLUDE\LOCALE.H
E:\VISUAL STUDIO\VISUAL STUDIO 2010\VC\INCLUDE\XDEBUG
E:\VISUAL STUDIO\VISUAL STUDIO 2010\VC\INCLUDE\SYSTEM_ERROR
E:\VISUAL STUDIO\VISUAL STUDIO 2010\VC\INCLUDE\CERRNO
E:\VISUAL STUDIO\VISUAL STUDIO 2010\VC\INCLUDE\ERRNO.H
E:\VISUAL STUDIO\VISUAL STUDIO 2010\VC\INCLUDE\SHARE.H
E:\VISUAL STUDIO\VISUAL STUDIO 2010\VC\INCLUDE\STRING
E:\VISUAL STUDIO\VISUAL STUDIO 2010\VC\INCLUDE\LIST
E:\VISUAL STUDIO\VISUAL STUDIO 2010\VC\INCLUDE\XFUNCTIONAL
E:\VISUAL STUDIO\VISUAL STUDIO 2010\VC\INCLUDE\MEMORY
E:\VISUAL STUDIO\VISUAL STUDIO 2010\VC\INCLUDE\INTRIN.H
E:\VISUAL STUDIO\VISUAL STUDIO 2010\VC\INCLUDE\SETJMP.H
E:\VISUAL STUDIO\VISUAL STUDIO 2010\VC\INCLUDE\IMMINTRIN.H
E:\VISUAL STUDIO\VISUAL STUDIO 2010\VC\INCLUDE\WMMINTRIN.H
E:\VISUAL STUDIO\VISUAL STUDIO 2010\VC\INCLUDE\NMMINTRIN.H
E:\VISUAL STUDIO\VISUAL STUDIO 2010\VC\INCLUDE\SMMINTRIN.H
E:\VISUAL STUDIO\VISUAL STUDIO 2010\VC\INCLUDE\TMMINTRIN.H
E:\VISUAL STUDIO\VISUAL STUDIO 2010\VC\INCLUDE\PMMINTRIN.H
E:\VISUAL STUDIO\VISUAL STUDIO 2010\VC\INCLUDE\EMMINTRIN.H
E:\VISUAL STUDIO\VISUAL STUDIO 2010\VC\INCLUDE\XMMINTRIN.H
E:\VISUAL STUDIO\VISUAL STUDIO 2010\VC\INCLUDE\MMINTRIN.H
E:\VISUAL STUDIO\VISUAL STUDIO 2010\VC\INCLUDE\MM3DNOW.H
E:\VISUAL STUDIO\VISUAL STUDIO 2010\VC\INCLUDE\XXSHARED
E:\SCHOOL STUFF\DSAL\SHOPFRONT\USER.H
E:\VISUAL STUDIO\VISUAL STUDIO 2010\VC\INCLUDE\FSTREAM
E:\SCHOOL STUFF\DSAL\SHOPFRONT\RATING.H
E:\VISUAL STUDIO\VISUAL STUDIO 2010\VC\BIN\1033\CLUI.DLL
C:\WINDOWS\GLOBALIZATION\SORTING\SORTDEFAULT.NLS
C:\WINDOWS\SYSTEM32\TZRES.DLL
^E:\SCHOOL STUFF\DSAL\SHOPFRONT\RATING.CPP
E:\SCHOOL STUFF\DSAL\SHOPFRONT\RATING.H
E:\VISUAL STUDIO\VISUAL STUDIO 2010\VC\INCLUDE\IOSTREAM
E:\VISUAL STUDIO\VISUAL STUDIO 2010\VC\INCLUDE\ISTREAM
E:\VISUAL STUDIO\VISUAL STUDIO 2010\VC\INCLUDE\OSTREAM
E:\VISUAL STUDIO\VISUAL STUDIO 2010\VC\INCLUDE\IOS
E:\VISUAL STUDIO\VISUAL STUDIO 2010\VC\INCLUDE\XLOCNUM
E:\VISUAL STUDIO\VISUAL STUDIO 2010\VC\INCLUDE\CLIMITS
E:\VISUAL STUDIO\VISUAL STUDIO 2010\VC\INCLUDE\YVALS.H
E:\VISUAL STUDIO\VISUAL STUDIO 2010\VC\INCLUDE\CRTDEFS.H
E:\VISUAL STUDIO\VISUAL STUDIO 2010\VC\INCLUDE\SAL.H
E:\VISUAL STUDIO\VISUAL STUDIO 2010\VC\INCLUDE\CODEANALYSIS\SOURCEANNOTATIONS.H
E:\VISUAL STUDIO\VISUAL STUDIO 2010\VC\INCLUDE\VADEFS.H
E:\VISUAL STUDIO\VISUAL STUDIO 2010\VC\INCLUDE\USE_ANSI.H
E:\VISUAL STUDIO\VISUAL STUDIO 2010\VC\INCLUDE\LIMITS.H
E:\VISUAL STUDIO\VISUAL STUDIO 2010\VC\INCLUDE\CMATH
E:\VISUAL STUDIO\VISUAL STUDIO 2010\VC\INCLUDE\MATH.H
E:\VISUAL STUDIO\VISUAL STUDIO 2010\VC\INCLUDE\CSTDIO
E:\VISUAL STUDIO\VISUAL STUDIO 2010\VC\INCLUDE\STDIO.H
E:\VISUAL STUDIO\VISUAL STUDIO 2010\VC\INCLUDE\SWPRINTF.INL
E:\VISUAL STUDIO\VISUAL STUDIO 2010\VC\INCLUDE\CSTDLIB
E:\VISUAL STUDIO\VISUAL STUDIO 2010\VC\INCLUDE\STDLIB.H
E:\VISUAL STUDIO\VISUAL STUDIO 2010\VC\INCLUDE\STREAMBUF
E:\VISUAL STUDIO\VISUAL STUDIO 2010\VC\INCLUDE\XIOSBASE
E:\VISUAL STUDIO\VISUAL STUDIO 2010\VC\INCLUDE\XLOCALE
E:\VISUAL STUDIO\VISUAL STUDIO 2010\VC\INCLUDE\CSTRING
E:\VISUAL STUDIO\VISUAL STUDIO 2010\VC\INCLUDE\STRING.H
E:\VISUAL STUDIO\VISUAL STUDIO 2010\VC\INCLUDE\STDEXCEPT
E:\VISUAL STUDIO\VISUAL STUDIO 2010\VC\INCLUDE\EXCEPTION
E:\VISUAL STUDIO\VISUAL STUDIO 2010\VC\INCLUDE\XSTDDEF
E:\VISUAL STUDIO\VISUAL STUDIO 2010\VC\INCLUDE\CSTDDEF
E:\VISUAL STUDIO\VISUAL STUDIO 2010\VC\INCLUDE\STDDEF.H
E:\VISUAL STUDIO\VISUAL STUDIO 2010\VC\INCLUDE\EH.H
E:\VISUAL STUDIO\VISUAL STUDIO 2010\VC\INCLUDE\MALLOC.H
E:\VISUAL STUDIO\VISUAL STUDIO 2010\VC\INCLUDE\XSTRING
E:\VISUAL STUDIO\VISUAL STUDIO 2010\VC\INCLUDE\XMEMORY
E:\VISUAL STUDIO\VISUAL STUDIO 2010\VC\INCLUDE\NEW
E:\VISUAL STUDIO\VISUAL STUDIO 2010\VC\INCLUDE\XUTILITY
E:\VISUAL STUDIO\VISUAL STUDIO 2010\VC\INCLUDE\UTILITY
E:\VISUAL STUDIO\VISUAL STUDIO 2010\VC\INCLUDE\IOSFWD
E:\VISUAL STUDIO\VISUAL STUDIO 2010\VC\INCLUDE\CWCHAR
E:\VISUAL STUDIO\VISUAL STUDIO 2010\VC\INCLUDE\WCHAR.H
E:\VISUAL STUDIO\VISUAL STUDIO 2010\VC\INCLUDE\WTIME.INL
E:\VISUAL STUDIO\VISUAL STUDIO 2010\VC\INCLUDE\CRTDBG.H
E:\VISUAL STUDIO\VISUAL STUDIO 2010\VC\INCLUDE\TYPE_TRAITS
E:\VISUAL STUDIO\VISUAL STUDIO 2010\VC\INCLUDE\LIMITS
E:\VISUAL STUDIO\VISUAL STUDIO 2010\VC\INCLUDE\YMATH.H
E:\VISUAL STUDIO\VISUAL STUDIO 2010\VC\INCLUDE\CFLOAT
E:\VISUAL STUDIO\VISUAL STUDIO 2010\VC\INCLUDE\FLOAT.H
E:\VISUAL STUDIO\VISUAL STUDIO 2010\VC\INCLUDE\CRTWRN.H
E:\VISUAL STUDIO\VISUAL STUDIO 2010\VC\INCLUDE\XTR1COMMON
E:\VISUAL STUDIO\VISUAL STUDIO 2010\VC\INCLUDE\XFWRAP
E:\VISUAL STUDIO\VISUAL STUDIO 2010\VC\INCLUDE\XFWRAP1
E:\VISUAL STUDIO\VISUAL STUDIO 2010\VC\INCLUDE\XXTYPE_TRAITS
E:\VISUAL STUDIO\VISUAL STUDIO 2010\VC\INCLUDE\TYPEINFO
E:\VISUAL STUDIO\VISUAL STUDIO 2010\VC\INCLUDE\XLOCINFO
E:\VISUAL STUDIO\VISUAL STUDIO 2010\VC\INCLUDE\XLOCINFO.H
E:\VISUAL STUDIO\VISUAL STUDIO 2010\VC\INCLUDE\CTYPE.H
E:\VISUAL STUDIO\VISUAL STUDIO 2010\VC\INCLUDE\LOCALE.H
E:\VISUAL STUDIO\VISUAL STUDIO 2010\VC\INCLUDE\XDEBUG
E:\VISUAL STUDIO\VISUAL STUDIO 2010\VC\INCLUDE\SYSTEM_ERROR
E:\VISUAL STUDIO\VISUAL STUDIO 2010\VC\INCLUDE\CERRNO
E:\VISUAL STUDIO\VISUAL STUDIO 2010\VC\INCLUDE\ERRNO.H
E:\VISUAL STUDIO\VISUAL STUDIO 2010\VC\INCLUDE\SHARE.H
E:\VISUAL STUDIO\VISUAL STUDIO 2010\VC\INCLUDE\LIST
E:\VISUAL STUDIO\VISUAL STUDIO 2010\VC\INCLUDE\XFUNCTIONAL
E:\VISUAL STUDIO\VISUAL STUDIO 2010\VC\INCLUDE\MEMORY
E:\VISUAL STUDIO\VISUAL STUDIO 2010\VC\INCLUDE\INTRIN.H
E:\VISUAL STUDIO\VISUAL STUDIO 2010\VC\INCLUDE\SETJMP.H
E:\VISUAL STUDIO\VISUAL STUDIO 2010\VC\INCLUDE\IMMINTRIN.H
E:\VISUAL STUDIO\VISUAL STUDIO 2010\VC\INCLUDE\WMMINTRIN.H
E:\VISUAL STUDIO\VISUAL STUDIO 2010\VC\INCLUDE\NMMINTRIN.H
E:\VISUAL STUDIO\VISUAL STUDIO 2010\VC\INCLUDE\SMMINTRIN.H
E:\VISUAL STUDIO\VISUAL STUDIO 2010\VC\INCLUDE\TMMINTRIN.H
E:\VISUAL STUDIO\VISUAL STUDIO 2010\VC\INCLUDE\PMMINTRIN.H
E:\VISUAL STUDIO\VISUAL STUDIO 2010\VC\INCLUDE\EMMINTRIN.H
E:\VISUAL STUDIO\VISUAL STUDIO 2010\VC\INCLUDE\XMMINTRIN.H
E:\VISUAL STUDIO\VISUAL STUDIO 2010\VC\INCLUDE\MMINTRIN.H
E:\VISUAL STUDIO\VISUAL STUDIO 2010\VC\INCLUDE\MM3DNOW.H
E:\VISUAL STUDIO\VISUAL STUDIO 2010\VC\INCLUDE\XXSHARED
^E:\SCHOOL STUFF\DSAL\SHOPFRONT\MAIN.CPP
E:\SCHOOL STUFF\DSAL\SHOPFRONT\GAME.H
E:\VISUAL STUDIO\VISUAL STUDIO 2010\VC\INCLUDE\IOSTREAM
E:\VISUAL STUDIO\VISUAL STUDIO 2010\VC\INCLUDE\ISTREAM
E:\VISUAL STUDIO\VISUAL STUDIO 2010\VC\INCLUDE\OSTREAM
E:\VISUAL STUDIO\VISUAL STUDIO 2010\VC\INCLUDE\IOS
E:\VISUAL STUDIO\VISUAL STUDIO 2010\VC\INCLUDE\XLOCNUM
E:\VISUAL STUDIO\VISUAL STUDIO 2010\VC\INCLUDE\CLIMITS
E:\VISUAL STUDIO\VISUAL STUDIO 2010\VC\INCLUDE\YVALS.H
E:\VISUAL STUDIO\VISUAL STUDIO 2010\VC\INCLUDE\CRTDEFS.H
E:\VISUAL STUDIO\VISUAL STUDIO 2010\VC\INCLUDE\SAL.H
E:\VISUAL STUDIO\VISUAL STUDIO 2010\VC\INCLUDE\CODEANALYSIS\SOURCEANNOTATIONS.H
E:\VISUAL STUDIO\VISUAL STUDIO 2010\VC\INCLUDE\VADEFS.H
E:\VISUAL STUDIO\VISUAL STUDIO 2010\VC\INCLUDE\USE_ANSI.H
E:\VISUAL STUDIO\VISUAL STUDIO 2010\VC\INCLUDE\LIMITS.H
E:\VISUAL STUDIO\VISUAL STUDIO 2010\VC\INCLUDE\CMATH
E:\VISUAL STUDIO\VISUAL STUDIO 2010\VC\INCLUDE\MATH.H
E:\VISUAL STUDIO\VISUAL STUDIO 2010\VC\INCLUDE\CSTDIO
E:\VISUAL STUDIO\VISUAL STUDIO 2010\VC\INCLUDE\STDIO.H
E:\VISUAL STUDIO\VISUAL STUDIO 2010\VC\INCLUDE\SWPRINTF.INL
E:\VISUAL STUDIO\VISUAL STUDIO 2010\VC\INCLUDE\CSTDLIB
E:\VISUAL STUDIO\VISUAL STUDIO 2010\VC\INCLUDE\STDLIB.H
E:\VISUAL STUDIO\VISUAL STUDIO 2010\VC\INCLUDE\STREAMBUF
E:\VISUAL STUDIO\VISUAL STUDIO 2010\VC\INCLUDE\XIOSBASE
E:\VISUAL STUDIO\VISUAL STUDIO 2010\VC\INCLUDE\XLOCALE
E:\VISUAL STUDIO\VISUAL STUDIO 2010\VC\INCLUDE\CSTRING
E:\VISUAL STUDIO\VISUAL STUDIO 2010\VC\INCLUDE\STRING.H
E:\VISUAL STUDIO\VISUAL STUDIO 2010\VC\INCLUDE\STDEXCEPT
E:\VISUAL STUDIO\VISUAL STUDIO 2010\VC\INCLUDE\EXCEPTION
E:\VISUAL STUDIO\VISUAL STUDIO 2010\VC\INCLUDE\XSTDDEF
E:\VISUAL STUDIO\VISUAL STUDIO 2010\VC\INCLUDE\CSTDDEF
E:\VISUAL STUDIO\VISUAL STUDIO 2010\VC\INCLUDE\STDDEF.H
E:\VISUAL STUDIO\VISUAL STUDIO 2010\VC\INCLUDE\EH.H
E:\VISUAL STUDIO\VISUAL STUDIO 2010\VC\INCLUDE\MALLOC.H
E:\VISUAL STUDIO\VISUAL STUDIO 2010\VC\INCLUDE\XSTRING
E:\VISUAL STUDIO\VISUAL STUDIO 2010\VC\INCLUDE\XMEMORY
E:\VISUAL STUDIO\VISUAL STUDIO 2010\VC\INCLUDE\NEW
E:\VISUAL STUDIO\VISUAL STUDIO 2010\VC\INCLUDE\XUTILITY
E:\VISUAL STUDIO\VISUAL STUDIO 2010\VC\INCLUDE\UTILITY
E:\VISUAL STUDIO\VISUAL STUDIO 2010\VC\INCLUDE\IOSFWD
E:\VISUAL STUDIO\VISUAL STUDIO 2010\VC\INCLUDE\CWCHAR
E:\VISUAL STUDIO\VISUAL STUDIO 2010\VC\INCLUDE\WCHAR.H
E:\VISUAL STUDIO\VISUAL STUDIO 2010\VC\INCLUDE\WTIME.INL
E:\VISUAL STUDIO\VISUAL STUDIO 2010\VC\INCLUDE\CRTDBG.H
E:\VISUAL STUDIO\VISUAL STUDIO 2010\VC\INCLUDE\TYPE_TRAITS
E:\VISUAL STUDIO\VISUAL STUDIO 2010\VC\INCLUDE\LIMITS
E:\VISUAL STUDIO\VISUAL STUDIO 2010\VC\INCLUDE\YMATH.H
E:\VISUAL STUDIO\VISUAL STUDIO 2010\VC\INCLUDE\CFLOAT
E:\VISUAL STUDIO\VISUAL STUDIO 2010\VC\INCLUDE\FLOAT.H
E:\VISUAL STUDIO\VISUAL STUDIO 2010\VC\INCLUDE\CRTWRN.H
E:\VISUAL STUDIO\VISUAL STUDIO 2010\VC\INCLUDE\XTR1COMMON
E:\VISUAL STUDIO\VISUAL STUDIO 2010\VC\INCLUDE\XFWRAP
E:\VISUAL STUDIO\VISUAL STUDIO 2010\VC\INCLUDE\XFWRAP1
E:\VISUAL STUDIO\VISUAL STUDIO 2010\VC\INCLUDE\XXTYPE_TRAITS
E:\VISUAL STUDIO\VISUAL STUDIO 2010\VC\INCLUDE\TYPEINFO
E:\VISUAL STUDIO\VISUAL STUDIO 2010\VC\INCLUDE\XLOCINFO
E:\VISUAL STUDIO\VISUAL STUDIO 2010\VC\INCLUDE\XLOCINFO.H
E:\VISUAL STUDIO\VISUAL STUDIO 2010\VC\INCLUDE\CTYPE.H
E:\VISUAL STUDIO\VISUAL STUDIO 2010\VC\INCLUDE\LOCALE.H
E:\VISUAL STUDIO\VISUAL STUDIO 2010\VC\INCLUDE\XDEBUG
E:\VISUAL STUDIO\VISUAL STUDIO 2010\VC\INCLUDE\SYSTEM_ERROR
E:\VISUAL STUDIO\VISUAL STUDIO 2010\VC\INCLUDE\CERRNO
E:\VISUAL STUDIO\VISUAL STUDIO 2010\VC\INCLUDE\ERRNO.H
E:\VISUAL STUDIO\VISUAL STUDIO 2010\VC\INCLUDE\SHARE.H
E:\VISUAL STUDIO\VISUAL STUDIO 2010\VC\INCLUDE\STRING
E:\VISUAL STUDIO\VISUAL STUDIO 2010\VC\INCLUDE\LIST
E:\VISUAL STUDIO\VISUAL STUDIO 2010\VC\INCLUDE\XFUNCTIONAL
E:\VISUAL STUDIO\VISUAL STUDIO 2010\VC\INCLUDE\MEMORY
E:\VISUAL STUDIO\VISUAL STUDIO 2010\VC\INCLUDE\INTRIN.H
E:\VISUAL STUDIO\VISUAL STUDIO 2010\VC\INCLUDE\SETJMP.H
E:\VISUAL STUDIO\VISUAL STUDIO 2010\VC\INCLUDE\IMMINTRIN.H
E:\VISUAL STUDIO\VISUAL STUDIO 2010\VC\INCLUDE\WMMINTRIN.H
E:\VISUAL STUDIO\VISUAL STUDIO 2010\VC\INCLUDE\NMMINTRIN.H
E:\VISUAL STUDIO\VISUAL STUDIO 2010\VC\INCLUDE\SMMINTRIN.H
E:\VISUAL STUDIO\VISUAL STUDIO 2010\VC\INCLUDE\TMMINTRIN.H
E:\VISUAL STUDIO\VISUAL STUDIO 2010\VC\INCLUDE\PMMINTRIN.H
E:\VISUAL STUDIO\VISUAL STUDIO 2010\VC\INCLUDE\EMMINTRIN.H
E:\VISUAL STUDIO\VISUAL STUDIO 2010\VC\INCLUDE\XMMINTRIN.H
E:\VISUAL STUDIO\VISUAL STUDIO 2010\VC\INCLUDE\MMINTRIN.H
E:\VISUAL STUDIO\VISUAL STUDIO 2010\VC\INCLUDE\MM3DNOW.H
E:\VISUAL STUDIO\VISUAL STUDIO 2010\VC\INCLUDE\XXSHARED
E:\SCHOOL STUFF\DSAL\SHOPFRONT\SHOPPER.H
E:\SCHOOL STUFF\DSAL\SHOPFRONT\USER.H
E:\VISUAL STUDIO\VISUAL STUDIO 2010\VC\INCLUDE\FSTREAM
E:\SCHOOL STUFF\DSAL\SHOPFRONT\RATING.H
E:\SCHOOL STUFF\DSAL\SHOPFRONT\ADMIN.H
E:\VISUAL STUDIO\VISUAL STUDIO 2010\VC\BIN\1033\CLUI.DLL
C:\WINDOWS\GLOBALIZATION\SORTING\SORTDEFAULT.NLS
C:\WINDOWS\SYSTEM32\TZRES.DLL
^E:\SCHOOL STUFF\DSAL\SHOPFRONT\GAME.CPP
E:\SCHOOL STUFF\DSAL\SHOPFRONT\GAME.H
E:\VISUAL STUDIO\VISUAL STUDIO 2010\VC\INCLUDE\IOSTREAM
E:\VISUAL STUDIO\VISUAL STUDIO 2010\VC\INCLUDE\ISTREAM
E:\VISUAL STUDIO\VISUAL STUDIO 2010\VC\INCLUDE\OSTREAM
E:\VISUAL STUDIO\VISUAL STUDIO 2010\VC\INCLUDE\IOS
E:\VISUAL STUDIO\VISUAL STUDIO 2010\VC\INCLUDE\XLOCNUM
E:\VISUAL STUDIO\VISUAL STUDIO 2010\VC\INCLUDE\CLIMITS
E:\VISUAL STUDIO\VISUAL STUDIO 2010\VC\INCLUDE\YVALS.H
E:\VISUAL STUDIO\VISUAL STUDIO 2010\VC\INCLUDE\CRTDEFS.H
E:\VISUAL STUDIO\VISUAL STUDIO 2010\VC\INCLUDE\SAL.H
E:\VISUAL STUDIO\VISUAL STUDIO 2010\VC\INCLUDE\CODEANALYSIS\SOURCEANNOTATIONS.H
E:\VISUAL STUDIO\VISUAL STUDIO 2010\VC\INCLUDE\VADEFS.H
E:\VISUAL STUDIO\VISUAL STUDIO 2010\VC\INCLUDE\USE_ANSI.H
E:\VISUAL STUDIO\VISUAL STUDIO 2010\VC\INCLUDE\LIMITS.H
E:\VISUAL STUDIO\VISUAL STUDIO 2010\VC\INCLUDE\CMATH
E:\VISUAL STUDIO\VISUAL STUDIO 2010\VC\INCLUDE\MATH.H
E:\VISUAL STUDIO\VISUAL STUDIO 2010\VC\INCLUDE\CSTDIO
E:\VISUAL STUDIO\VISUAL STUDIO 2010\VC\INCLUDE\STDIO.H
E:\VISUAL STUDIO\VISUAL STUDIO 2010\VC\INCLUDE\SWPRINTF.INL
E:\VISUAL STUDIO\VISUAL STUDIO 2010\VC\INCLUDE\CSTDLIB
E:\VISUAL STUDIO\VISUAL STUDIO 2010\VC\INCLUDE\STDLIB.H
E:\VISUAL STUDIO\VISUAL STUDIO 2010\VC\INCLUDE\STREAMBUF
E:\VISUAL STUDIO\VISUAL STUDIO 2010\VC\INCLUDE\XIOSBASE
E:\VISUAL STUDIO\VISUAL STUDIO 2010\VC\INCLUDE\XLOCALE
E:\VISUAL STUDIO\VISUAL STUDIO 2010\VC\INCLUDE\CSTRING
E:\VISUAL STUDIO\VISUAL STUDIO 2010\VC\INCLUDE\STRING.H
E:\VISUAL STUDIO\VISUAL STUDIO 2010\VC\INCLUDE\STDEXCEPT
E:\VISUAL STUDIO\VISUAL STUDIO 2010\VC\INCLUDE\EXCEPTION
E:\VISUAL STUDIO\VISUAL STUDIO 2010\VC\INCLUDE\XSTDDEF
E:\VISUAL STUDIO\VISUAL STUDIO 2010\VC\INCLUDE\CSTDDEF
E:\VISUAL STUDIO\VISUAL STUDIO 2010\VC\INCLUDE\STDDEF.H
E:\VISUAL STUDIO\VISUAL STUDIO 2010\VC\INCLUDE\EH.H
E:\VISUAL STUDIO\VISUAL STUDIO 2010\VC\INCLUDE\MALLOC.H
E:\VISUAL STUDIO\VISUAL STUDIO 2010\VC\INCLUDE\XSTRING
E:\VISUAL STUDIO\VISUAL STUDIO 2010\VC\INCLUDE\XMEMORY
E:\VISUAL STUDIO\VISUAL STUDIO 2010\VC\INCLUDE\NEW
E:\VISUAL STUDIO\VISUAL STUDIO 2010\VC\INCLUDE\XUTILITY
E:\VISUAL STUDIO\VISUAL STUDIO 2010\VC\INCLUDE\UTILITY
E:\VISUAL STUDIO\VISUAL STUDIO 2010\VC\INCLUDE\IOSFWD
E:\VISUAL STUDIO\VISUAL STUDIO 2010\VC\INCLUDE\CWCHAR
E:\VISUAL STUDIO\VISUAL STUDIO 2010\VC\INCLUDE\WCHAR.H
E:\VISUAL STUDIO\VISUAL STUDIO 2010\VC\INCLUDE\WTIME.INL
E:\VISUAL STUDIO\VISUAL STUDIO 2010\VC\INCLUDE\CRTDBG.H
E:\VISUAL STUDIO\VISUAL STUDIO 2010\VC\INCLUDE\TYPE_TRAITS
E:\VISUAL STUDIO\VISUAL STUDIO 2010\VC\INCLUDE\LIMITS
E:\VISUAL STUDIO\VISUAL STUDIO 2010\VC\INCLUDE\YMATH.H
E:\VISUAL STUDIO\VISUAL STUDIO 2010\VC\INCLUDE\CFLOAT
E:\VISUAL STUDIO\VISUAL STUDIO 2010\VC\INCLUDE\FLOAT.H
E:\VISUAL STUDIO\VISUAL STUDIO 2010\VC\INCLUDE\CRTWRN.H
E:\VISUAL STUDIO\VISUAL STUDIO 2010\VC\INCLUDE\XTR1COMMON
E:\VISUAL STUDIO\VISUAL STUDIO 2010\VC\INCLUDE\XFWRAP
E:\VISUAL STUDIO\VISUAL STUDIO 2010\VC\INCLUDE\XFWRAP1
E:\VISUAL STUDIO\VISUAL STUDIO 2010\VC\INCLUDE\XXTYPE_TRAITS
E:\VISUAL STUDIO\VISUAL STUDIO 2010\VC\INCLUDE\TYPEINFO
E:\VISUAL STUDIO\VISUAL STUDIO 2010\VC\INCLUDE\XLOCINFO
E:\VISUAL STUDIO\VISUAL STUDIO 2010\VC\INCLUDE\XLOCINFO.H
E:\VISUAL STUDIO\VISUAL STUDIO 2010\VC\INCLUDE\CTYPE.H
E:\VISUAL STUDIO\VISUAL STUDIO 2010\VC\INCLUDE\LOCALE.H
E:\VISUAL STUDIO\VISUAL STUDIO 2010\VC\INCLUDE\XDEBUG
E:\VISUAL STUDIO\VISUAL STUDIO 2010\VC\INCLUDE\SYSTEM_ERROR
E:\VISUAL STUDIO\VISUAL STUDIO 2010\VC\INCLUDE\CERRNO
E:\VISUAL STUDIO\VISUAL STUDIO 2010\VC\INCLUDE\ERRNO.H
E:\VISUAL STUDIO\VISUAL STUDIO 2010\VC\INCLUDE\SHARE.H
E:\VISUAL STUDIO\VISUAL STUDIO 2010\VC\INCLUDE\STRING
E:\VISUAL STUDIO\VISUAL STUDIO 2010\VC\INCLUDE\LIST
E:\VISUAL STUDIO\VISUAL STUDIO 2010\VC\INCLUDE\XFUNCTIONAL
E:\VISUAL STUDIO\VISUAL STUDIO 2010\VC\INCLUDE\MEMORY
E:\VISUAL STUDIO\VISUAL STUDIO 2010\VC\INCLUDE\INTRIN.H
E:\VISUAL STUDIO\VISUAL STUDIO 2010\VC\INCLUDE\SETJMP.H
E:\VISUAL STUDIO\VISUAL STUDIO 2010\VC\INCLUDE\IMMINTRIN.H
E:\VISUAL STUDIO\VISUAL STUDIO 2010\VC\INCLUDE\WMMINTRIN.H
E:\VISUAL STUDIO\VISUAL STUDIO 2010\VC\INCLUDE\NMMINTRIN.H
E:\VISUAL STUDIO\VISUAL STUDIO 2010\VC\INCLUDE\SMMINTRIN.H
E:\VISUAL STUDIO\VISUAL STUDIO 2010\VC\INCLUDE\TMMINTRIN.H
E:\VISUAL STUDIO\VISUAL STUDIO 2010\VC\INCLUDE\PMMINTRIN.H
E:\VISUAL STUDIO\VISUAL STUDIO 2010\VC\INCLUDE\EMMINTRIN.H
E:\VISUAL STUDIO\VISUAL STUDIO 2010\VC\INCLUDE\XMMINTRIN.H
E:\VISUAL STUDIO\VISUAL STUDIO 2010\VC\INCLUDE\MMINTRIN.H
E:\VISUAL STUDIO\VISUAL STUDIO 2010\VC\INCLUDE\MM3DNOW.H
E:\VISUAL STUDIO\VISUAL STUDIO 2010\VC\INCLUDE\XXSHARED
E:\VISUAL STUDIO\VISUAL STUDIO 2010\VC\BIN\1033\CLUI.DLL
C:\WINDOWS\GLOBALIZATION\SORTING\SORTDEFAULT.NLS
C:\WINDOWS\SYSTEM32\TZRES.DLL
^E:\SCHOOL STUFF\DSAL\SHOPFRONT\ADMIN.CPP
E:\SCHOOL STUFF\DSAL\SHOPFRONT\ADMIN.H
E:\SCHOOL STUFF\DSAL\SHOPFRONT\USER.H
E:\VISUAL STUDIO\VISUAL STUDIO 2010\VC\INCLUDE\IOSTREAM
E:\VISUAL STUDIO\VISUAL STUDIO 2010\VC\INCLUDE\ISTREAM
E:\VISUAL STUDIO\VISUAL STUDIO 2010\VC\INCLUDE\OSTREAM
E:\VISUAL STUDIO\VISUAL STUDIO 2010\VC\INCLUDE\IOS
E:\VISUAL STUDIO\VISUAL STUDIO 2010\VC\INCLUDE\XLOCNUM
E:\VISUAL STUDIO\VISUAL STUDIO 2010\VC\INCLUDE\CLIMITS
E:\VISUAL STUDIO\VISUAL STUDIO 2010\VC\INCLUDE\YVALS.H
E:\VISUAL STUDIO\VISUAL STUDIO 2010\VC\INCLUDE\CRTDEFS.H
E:\VISUAL STUDIO\VISUAL STUDIO 2010\VC\INCLUDE\SAL.H
E:\VISUAL STUDIO\VISUAL STUDIO 2010\VC\INCLUDE\CODEANALYSIS\SOURCEANNOTATIONS.H
E:\VISUAL STUDIO\VISUAL STUDIO 2010\VC\INCLUDE\VADEFS.H
E:\VISUAL STUDIO\VISUAL STUDIO 2010\VC\INCLUDE\USE_ANSI.H
E:\VISUAL STUDIO\VISUAL STUDIO 2010\VC\INCLUDE\LIMITS.H
E:\VISUAL STUDIO\VISUAL STUDIO 2010\VC\INCLUDE\CMATH
E:\VISUAL STUDIO\VISUAL STUDIO 2010\VC\INCLUDE\MATH.H
E:\VISUAL STUDIO\VISUAL STUDIO 2010\VC\INCLUDE\CSTDIO
E:\VISUAL STUDIO\VISUAL STUDIO 2010\VC\INCLUDE\STDIO.H
E:\VISUAL STUDIO\VISUAL STUDIO 2010\VC\INCLUDE\SWPRINTF.INL
E:\VISUAL STUDIO\VISUAL STUDIO 2010\VC\INCLUDE\CSTDLIB
E:\VISUAL STUDIO\VISUAL STUDIO 2010\VC\INCLUDE\STDLIB.H
E:\VISUAL STUDIO\VISUAL STUDIO 2010\VC\INCLUDE\STREAMBUF
E:\VISUAL STUDIO\VISUAL STUDIO 2010\VC\INCLUDE\XIOSBASE
E:\VISUAL STUDIO\VISUAL STUDIO 2010\VC\INCLUDE\XLOCALE
E:\VISUAL STUDIO\VISUAL STUDIO 2010\VC\INCLUDE\CSTRING
E:\VISUAL STUDIO\VISUAL STUDIO 2010\VC\INCLUDE\STRING.H
E:\VISUAL STUDIO\VISUAL STUDIO 2010\VC\INCLUDE\STDEXCEPT
E:\VISUAL STUDIO\VISUAL STUDIO 2010\VC\INCLUDE\EXCEPTION
E:\VISUAL STUDIO\VISUAL STUDIO 2010\VC\INCLUDE\XSTDDEF
E:\VISUAL STUDIO\VISUAL STUDIO 2010\VC\INCLUDE\CSTDDEF
E:\VISUAL STUDIO\VISUAL STUDIO 2010\VC\INCLUDE\STDDEF.H
E:\VISUAL STUDIO\VISUAL STUDIO 2010\VC\INCLUDE\EH.H
E:\VISUAL STUDIO\VISUAL STUDIO 2010\VC\INCLUDE\MALLOC.H
E:\VISUAL STUDIO\VISUAL STUDIO 2010\VC\INCLUDE\XSTRING
E:\VISUAL STUDIO\VISUAL STUDIO 2010\VC\INCLUDE\XMEMORY
E:\VISUAL STUDIO\VISUAL STUDIO 2010\VC\INCLUDE\NEW
E:\VISUAL STUDIO\VISUAL STUDIO 2010\VC\INCLUDE\XUTILITY
E:\VISUAL STUDIO\VISUAL STUDIO 2010\VC\INCLUDE\UTILITY
E:\VISUAL STUDIO\VISUAL STUDIO 2010\VC\INCLUDE\IOSFWD
E:\VISUAL STUDIO\VISUAL STUDIO 2010\VC\INCLUDE\CWCHAR
E:\VISUAL STUDIO\VISUAL STUDIO 2010\VC\INCLUDE\WCHAR.H
E:\VISUAL STUDIO\VISUAL STUDIO 2010\VC\INCLUDE\WTIME.INL
E:\VISUAL STUDIO\VISUAL STUDIO 2010\VC\INCLUDE\CRTDBG.H
E:\VISUAL STUDIO\VISUAL STUDIO 2010\VC\INCLUDE\TYPE_TRAITS
E:\VISUAL STUDIO\VISUAL STUDIO 2010\VC\INCLUDE\LIMITS
E:\VISUAL STUDIO\VISUAL STUDIO 2010\VC\INCLUDE\YMATH.H
E:\VISUAL STUDIO\VISUAL STUDIO 2010\VC\INCLUDE\CFLOAT
E:\VISUAL STUDIO\VISUAL STUDIO 2010\VC\INCLUDE\FLOAT.H
E:\VISUAL STUDIO\VISUAL STUDIO 2010\VC\INCLUDE\CRTWRN.H
E:\VISUAL STUDIO\VISUAL STUDIO 2010\VC\INCLUDE\XTR1COMMON
E:\VISUAL STUDIO\VISUAL STUDIO 2010\VC\INCLUDE\XFWRAP
E:\VISUAL STUDIO\VISUAL STUDIO 2010\VC\INCLUDE\XFWRAP1
E:\VISUAL STUDIO\VISUAL STUDIO 2010\VC\INCLUDE\XXTYPE_TRAITS
E:\VISUAL STUDIO\VISUAL STUDIO 2010\VC\INCLUDE\TYPEINFO
E:\VISUAL STUDIO\VISUAL STUDIO 2010\VC\INCLUDE\XLOCINFO
E:\VISUAL STUDIO\VISUAL STUDIO 2010\VC\INCLUDE\XLOCINFO.H
E:\VISUAL STUDIO\VISUAL STUDIO 2010\VC\INCLUDE\CTYPE.H
E:\VISUAL STUDIO\VISUAL STUDIO 2010\VC\INCLUDE\LOCALE.H
E:\VISUAL STUDIO\VISUAL STUDIO 2010\VC\INCLUDE\XDEBUG
E:\VISUAL STUDIO\VISUAL STUDIO 2010\VC\INCLUDE\SYSTEM_ERROR
E:\VISUAL STUDIO\VISUAL STUDIO 2010\VC\INCLUDE\CERRNO
E:\VISUAL STUDIO\VISUAL STUDIO 2010\VC\INCLUDE\ERRNO.H
E:\VISUAL STUDIO\VISUAL STUDIO 2010\VC\INCLUDE\SHARE.H
E:\VISUAL STUDIO\VISUAL STUDIO 2010\VC\INCLUDE\LIST
E:\VISUAL STUDIO\VISUAL STUDIO 2010\VC\INCLUDE\XFUNCTIONAL
E:\VISUAL STUDIO\VISUAL STUDIO 2010\VC\INCLUDE\MEMORY
E:\VISUAL STUDIO\VISUAL STUDIO 2010\VC\INCLUDE\INTRIN.H
E:\VISUAL STUDIO\VISUAL STUDIO 2010\VC\INCLUDE\SETJMP.H
E:\VISUAL STUDIO\VISUAL STUDIO 2010\VC\INCLUDE\IMMINTRIN.H
E:\VISUAL STUDIO\VISUAL STUDIO 2010\VC\INCLUDE\WMMINTRIN.H
E:\VISUAL STUDIO\VISUAL STUDIO 2010\VC\INCLUDE\NMMINTRIN.H
E:\VISUAL STUDIO\VISUAL STUDIO 2010\VC\INCLUDE\SMMINTRIN.H
E:\VISUAL STUDIO\VISUAL STUDIO 2010\VC\INCLUDE\TMMINTRIN.H
E:\VISUAL STUDIO\VISUAL STUDIO 2010\VC\INCLUDE\PMMINTRIN.H
E:\VISUAL STUDIO\VISUAL STUDIO 2010\VC\INCLUDE\EMMINTRIN.H
E:\VISUAL STUDIO\VISUAL STUDIO 2010\VC\INCLUDE\XMMINTRIN.H
E:\VISUAL STUDIO\VISUAL STUDIO 2010\VC\INCLUDE\MMINTRIN.H
E:\VISUAL STUDIO\VISUAL STUDIO 2010\VC\INCLUDE\MM3DNOW.H
E:\VISUAL STUDIO\VISUAL STUDIO 2010\VC\INCLUDE\XXSHARED
E:\VISUAL STUDIO\VISUAL STUDIO 2010\VC\INCLUDE\FSTREAM
E:\SCHOOL STUFF\DSAL\SHOPFRONT\GAME.H
E:\VISUAL STUDIO\VISUAL STUDIO 2010\VC\INCLUDE\STRING
E:\SCHOOL STUFF\DSAL\SHOPFRONT\RATING.H
E:\VISUAL STUDIO\VISUAL STUDIO 2010\VC\BIN\1033\CLUI.DLL
C:\WINDOWS\GLOBALIZATION\SORTING\SORTDEFAULT.NLS
C:\WINDOWS\SYSTEM32\TZRES.DLL
