^C:\USERS\Y400\DOCUMENTS\VISUAL STUDIO 2010\PROJECTS\SHOPFRONT\SHOPFRONT\DEBUG\SHOPFRONT.EXE.INTERMEDIATE.MANIFEST
/nologo /verbose /out:"Debug\ShopFront.exe.embed.manifest" /manifest Debug\ShopFront.exe.intermediate.manifest
^E:\SCHOOL STUFF\DSAL\SHOPFRONT\DEBUG\SHOPFRONT.EXE.INTERMEDIATE.MANIFEST
/nologo /verbose /out:"Debug\ShopFront.exe.embed.manifest" /manifest Debug\ShopFront.exe.intermediate.manifest
