^C:\USERS\Y400\DOCUMENTS\VISUAL STUDIO 2010\PROJECTS\SHOPFRONT\SHOPFRONT\DEBUG\SHOPFRONT_MANIFEST.RC
C:\USERS\Y400\DOCUMENTS\VISUAL STUDIO 2010\PROJECTS\SHOPFRONT\SHOPFRONT\DEBUG\SHOPFRONT.EXE.EMBED.MANIFEST
^E:\SCHOOL STUFF\DSAL\SHOPFRONT\DEBUG\SHOPFRONT_MANIFEST.RC
E:\SCHOOL STUFF\DSAL\SHOPFRONT\DEBUG\SHOPFRONT.EXE.EMBED.MANIFEST
