1 12 48 38 25 69
2 5 0 54 33 75
3 3 25 87 298 421
4 7 125 22 331 218
5 98 48 33 15 1
6 74 22 219 81 313
7 34 56 66 95 88
8 21 58 91 77 102
9 8 24 64 92 362
10 11 30 28 59 96
-842150451 0 0 0 0 0
-842150451 0 0 0 0 0
